Source,Target,Weight
6.0,43.0,6.0
11.0,51.0,6.0
16.0,67.0,6.0
29.0,82.0,1.0
29.0,84.0,1.0
29.0,89.0,5.0
32.0,67.0,1.0
32.0,68.0,1.0
43.0,6.0,6.0
48.0,49.0,6.0
49.0,48.0,6.0
51.0,11.0,6.0
51.0,60.0,6.0
54.0,68.0,1.0
54.0,73.0,1.0
57.0,67.0,1.0
60.0,51.0,6.0
65.0,73.0,6.0
65.0,76.0,6.0
67.0,16.0,6.0
67.0,32.0,1.0
67.0,57.0,1.0
68.0,32.0,1.0
68.0,54.0,1.0
71.0,94.0,6.0
73.0,54.0,1.0
73.0,65.0,6.0
76.0,65.0,6.0
82.0,29.0,1.0
84.0,29.0,1.0
89.0,29.0,5.0
94.0,71.0,6.0
0.0,0.0,0.2
1.0,1.0,0.2
2.0,2.0,0.2
3.0,3.0,0.2
4.0,4.0,0.2
5.0,5.0,0.2
6.0,6.0,0.2
7.0,7.0,0.2
8.0,8.0,0.2
9.0,9.0,0.2
10.0,10.0,0.2
11.0,11.0,0.2
12.0,12.0,0.2
13.0,13.0,0.2
14.0,14.0,0.2
15.0,15.0,0.2
16.0,16.0,0.2
17.0,17.0,0.2
18.0,18.0,0.2
19.0,19.0,0.2
20.0,20.0,0.2
21.0,21.0,0.2
22.0,22.0,0.2
23.0,23.0,0.2
24.0,24.0,0.2
25.0,25.0,0.2
26.0,26.0,0.2
27.0,27.0,0.2
28.0,28.0,0.2
29.0,29.0,0.2
30.0,30.0,0.2
31.0,31.0,0.2
32.0,32.0,0.2
33.0,33.0,0.2
34.0,34.0,0.2
35.0,35.0,0.2
36.0,36.0,0.2
37.0,37.0,0.2
38.0,38.0,0.2
39.0,39.0,0.2
40.0,40.0,0.2
41.0,41.0,0.2
42.0,42.0,0.2
43.0,43.0,0.2
44.0,44.0,0.2
45.0,45.0,0.2
46.0,46.0,0.2
47.0,47.0,0.2
48.0,48.0,0.2
49.0,49.0,0.2
50.0,50.0,0.2
51.0,51.0,0.2
52.0,52.0,0.2
53.0,53.0,0.2
54.0,54.0,0.2
55.0,55.0,0.2
56.0,56.0,0.2
57.0,57.0,0.2
58.0,58.0,0.2
59.0,59.0,0.2
60.0,60.0,0.2
61.0,61.0,0.2
62.0,62.0,0.2
63.0,63.0,0.2
64.0,64.0,0.2
65.0,65.0,0.2
66.0,66.0,0.2
67.0,67.0,0.2
68.0,68.0,0.2
69.0,69.0,0.2
70.0,70.0,0.2
71.0,71.0,0.2
72.0,72.0,0.2
73.0,73.0,0.2
74.0,74.0,0.2
75.0,75.0,0.2
76.0,76.0,0.2
77.0,77.0,0.2
78.0,78.0,0.2
79.0,79.0,0.2
80.0,80.0,0.2
81.0,81.0,0.2
82.0,82.0,0.2
83.0,83.0,0.2
84.0,84.0,0.2
85.0,85.0,0.2
86.0,86.0,0.2
87.0,87.0,0.2
88.0,88.0,0.2
89.0,89.0,0.2
90.0,90.0,0.2
91.0,91.0,0.2
92.0,92.0,0.2
93.0,93.0,0.2
94.0,94.0,0.2
95.0,95.0,0.2
