Node_1,Node_2,Start,End
0.0,3.0,567.0,758.0
0.0,5.0,567.0,758.0
0.0,9.0,567.0,758.0
0.0,12.0,567.0,758.0
0.0,13.0,567.0,758.0
0.0,17.0,567.0,758.0
0.0,20.0,567.0,758.0
3.0,5.0,567.0,758.0
3.0,9.0,567.0,758.0
3.0,12.0,567.0,758.0
3.0,13.0,567.0,758.0
3.0,17.0,567.0,758.0
3.0,20.0,567.0,758.0
5.0,9.0,567.0,758.0
5.0,12.0,567.0,758.0
5.0,13.0,567.0,758.0
5.0,17.0,567.0,758.0
5.0,20.0,567.0,758.0
9.0,12.0,567.0,758.0
9.0,13.0,567.0,758.0
9.0,17.0,567.0,758.0
9.0,20.0,567.0,758.0
12.0,13.0,567.0,758.0
12.0,17.0,567.0,758.0
12.0,20.0,567.0,758.0
13.0,17.0,567.0,758.0
13.0,20.0,567.0,758.0
17.0,20.0,567.0,758.0
0.0,9.0,758.0,941.0
0.0,12.0,758.0,941.0
0.0,13.0,758.0,941.0
0.0,20.0,758.0,941.0
9.0,12.0,758.0,941.0
9.0,13.0,758.0,941.0
9.0,20.0,758.0,941.0
12.0,13.0,758.0,941.0
12.0,20.0,758.0,941.0
13.0,20.0,758.0,941.0
0.0,9.0,941.0,1124.0
0.0,12.0,941.0,1124.0
0.0,13.0,941.0,1124.0
0.0,20.0,941.0,1124.0
9.0,12.0,941.0,1124.0
9.0,13.0,941.0,1124.0
9.0,20.0,941.0,1124.0
12.0,13.0,941.0,1124.0
12.0,20.0,941.0,1124.0
13.0,20.0,941.0,1124.0
4.0,6.0,1124.0,1245.0
12.0,17.0,1245.0,1363.0
0.0,9.0,1389.0,1419.0
0.0,20.0,1389.0,1419.0
9.0,20.0,1389.0,1419.0
0.0,3.0,1419.0,1756.0
0.0,4.0,1419.0,1756.0
0.0,5.0,1419.0,1756.0
0.0,6.0,1419.0,1756.0
0.0,9.0,1419.0,1756.0
0.0,12.0,1419.0,1756.0
0.0,13.0,1419.0,1756.0
0.0,15.0,1419.0,1756.0
0.0,17.0,1419.0,1756.0
0.0,23.0,1419.0,1756.0
3.0,4.0,1419.0,1756.0
3.0,5.0,1419.0,1756.0
3.0,6.0,1419.0,1756.0
3.0,9.0,1419.0,1756.0
3.0,12.0,1419.0,1756.0
3.0,13.0,1419.0,1756.0
3.0,15.0,1419.0,1756.0
3.0,17.0,1419.0,1756.0
3.0,23.0,1419.0,1756.0
4.0,5.0,1419.0,1756.0
4.0,6.0,1419.0,1756.0
4.0,9.0,1419.0,1756.0
4.0,12.0,1419.0,1756.0
4.0,13.0,1419.0,1756.0
4.0,15.0,1419.0,1756.0
4.0,17.0,1419.0,1756.0
4.0,23.0,1419.0,1756.0
5.0,6.0,1419.0,1756.0
5.0,9.0,1419.0,1756.0
5.0,12.0,1419.0,1756.0
5.0,13.0,1419.0,1756.0
5.0,15.0,1419.0,1756.0
5.0,17.0,1419.0,1756.0
5.0,23.0,1419.0,1756.0
6.0,9.0,1419.0,1756.0
6.0,12.0,1419.0,1756.0
6.0,13.0,1419.0,1756.0
6.0,15.0,1419.0,1756.0
6.0,17.0,1419.0,1756.0
6.0,23.0,1419.0,1756.0
9.0,12.0,1419.0,1756.0
9.0,13.0,1419.0,1756.0
9.0,15.0,1419.0,1756.0
9.0,17.0,1419.0,1756.0
9.0,23.0,1419.0,1756.0
12.0,13.0,1419.0,1756.0
12.0,15.0,1419.0,1756.0
12.0,17.0,1419.0,1756.0
12.0,23.0,1419.0,1756.0
13.0,15.0,1419.0,1756.0
13.0,17.0,1419.0,1756.0
13.0,23.0,1419.0,1756.0
15.0,17.0,1419.0,1756.0
15.0,23.0,1419.0,1756.0
17.0,23.0,1419.0,1756.0
1.0,6.0,1847.0,1977.0
3.0,17.0,2405.0,2456.0
4.0,17.0,2456.0,2479.0
0.0,1.0,2479.0,2654.0
3.0,4.0,2654.0,2848.0
3.0,5.0,2654.0,2848.0
3.0,6.0,2654.0,2848.0
3.0,9.0,2654.0,2848.0
3.0,12.0,2654.0,2848.0
3.0,17.0,2654.0,2848.0
3.0,20.0,2654.0,2848.0
3.0,23.0,2654.0,2848.0
4.0,5.0,2654.0,2848.0
4.0,6.0,2654.0,2848.0
4.0,9.0,2654.0,2848.0
4.0,12.0,2654.0,2848.0
4.0,17.0,2654.0,2848.0
4.0,20.0,2654.0,2848.0
4.0,23.0,2654.0,2848.0
5.0,6.0,2654.0,2848.0
5.0,9.0,2654.0,2848.0
5.0,12.0,2654.0,2848.0
5.0,17.0,2654.0,2848.0
5.0,20.0,2654.0,2848.0
5.0,23.0,2654.0,2848.0
6.0,9.0,2654.0,2848.0
6.0,12.0,2654.0,2848.0
6.0,17.0,2654.0,2848.0
6.0,20.0,2654.0,2848.0
6.0,23.0,2654.0,2848.0
9.0,12.0,2654.0,2848.0
9.0,17.0,2654.0,2848.0
9.0,20.0,2654.0,2848.0
9.0,23.0,2654.0,2848.0
12.0,17.0,2654.0,2848.0
12.0,20.0,2654.0,2848.0
12.0,23.0,2654.0,2848.0
17.0,20.0,2654.0,2848.0
17.0,23.0,2654.0,2848.0
20.0,23.0,2654.0,2848.0
12.0,17.0,2848.0,3029.0
2.0,8.0,3029.0,3365.0
1.0,9.0,3468.0,3546.0
1.0,12.0,3468.0,3546.0
1.0,13.0,3468.0,3546.0
1.0,15.0,3468.0,3546.0
1.0,20.0,3468.0,3546.0
9.0,12.0,3468.0,3546.0
9.0,13.0,3468.0,3546.0
9.0,15.0,3468.0,3546.0
9.0,20.0,3468.0,3546.0
12.0,13.0,3468.0,3546.0
12.0,15.0,3468.0,3546.0
12.0,20.0,3468.0,3546.0
13.0,15.0,3468.0,3546.0
13.0,20.0,3468.0,3546.0
15.0,20.0,3468.0,3546.0
4.0,6.0,3546.0,3657.0
4.0,13.0,3546.0,3657.0
6.0,13.0,3546.0,3657.0
2.0,8.0,3799.0,3985.0
1.0,15.0,3985.0,4082.0
1.0,23.0,3985.0,4082.0
15.0,23.0,3985.0,4082.0
1.0,4.0,4082.0,4215.0
1.0,6.0,4082.0,4215.0
4.0,6.0,4082.0,4215.0
4.0,13.0,4215.0,4361.0
4.0,17.0,4215.0,4361.0
13.0,17.0,4215.0,4361.0
0.0,6.0,4361.0,4463.0
0.0,5.0,4463.0,4600.0
0.0,12.0,4600.0,4819.0
0.0,13.0,4600.0,4819.0
0.0,17.0,4600.0,4819.0
12.0,13.0,4600.0,4819.0
12.0,17.0,4600.0,4819.0
13.0,17.0,4600.0,4819.0
0.0,20.0,4819.0,4864.0
0.0,1.0,4864.0,4968.0
0.0,12.0,4864.0,4968.0
1.0,12.0,4864.0,4968.0
0.0,1.0,5213.0,5413.0
13.0,17.0,5413.0,5605.0
13.0,20.0,5413.0,5605.0
17.0,20.0,5413.0,5605.0
0.0,1.0,5718.0,5750.0
9.0,17.0,5829.0,5938.0
9.0,20.0,5829.0,5938.0
17.0,20.0,5829.0,5938.0
13.0,17.0,5938.0,5991.0
3.0,15.0,6224.0,6335.0
3.0,23.0,6224.0,6335.0
15.0,23.0,6224.0,6335.0
3.0,5.0,6335.0,6498.0
3.0,23.0,6335.0,6498.0
5.0,23.0,6335.0,6498.0
3.0,4.0,6587.0,6836.0
3.0,5.0,6587.0,6836.0
3.0,12.0,6587.0,6836.0
3.0,23.0,6587.0,6836.0
4.0,5.0,6587.0,6836.0
4.0,12.0,6587.0,6836.0
4.0,23.0,6587.0,6836.0
5.0,12.0,6587.0,6836.0
5.0,23.0,6587.0,6836.0
12.0,23.0,6587.0,6836.0
12.0,15.0,6836.0,6867.0
3.0,5.0,7048.0,7103.0
3.0,12.0,7048.0,7103.0
5.0,12.0,7048.0,7103.0
6.0,12.0,7103.0,7258.0
10.0,12.0,7258.0,7432.0
10.0,16.0,7258.0,7432.0
12.0,16.0,7258.0,7432.0
4.0,23.0,7432.0,7591.0
3.0,5.0,7591.0,7672.0
3.0,12.0,7591.0,7672.0
5.0,12.0,7591.0,7672.0
5.0,12.0,7672.0,7889.0
13.0,20.0,7889.0,8071.0
10.0,16.0,8071.0,8243.0
10.0,17.0,8071.0,8243.0
16.0,17.0,8071.0,8243.0
0.0,1.0,8243.0,8339.0
10.0,12.0,8339.0,8388.0
10.0,12.0,8388.0,8423.0
10.0,17.0,8388.0,8423.0
12.0,17.0,8388.0,8423.0
0.0,1.0,8423.0,8543.0
10.0,12.0,8543.0,8580.0
10.0,17.0,8543.0,8580.0
12.0,17.0,8543.0,8580.0
4.0,6.0,8580.0,8649.0
12.0,17.0,8649.0,8748.0
2.0,8.0,9020.0,9238.0
0.0,1.0,9859.0,9982.0
0.0,1.0,10031.0,10093.0
5.0,12.0,10093.0,10305.0
9.0,13.0,10461.0,10515.0
1.0,9.0,10515.0,10618.0
1.0,13.0,10515.0,10618.0
1.0,20.0,10515.0,10618.0
9.0,13.0,10515.0,10618.0
9.0,20.0,10515.0,10618.0
13.0,20.0,10515.0,10618.0
1.0,9.0,10618.0,10705.0
0.0,7.0,10705.0,10916.0
2.0,8.0,10916.0,10986.0
2.0,8.0,10986.0,11042.0
10.0,12.0,11438.0,11582.0
10.0,16.0,11438.0,11582.0
12.0,16.0,11438.0,11582.0
5.0,12.0,11727.0,11835.0
0.0,7.0,11835.0,11967.0
10.0,12.0,11967.0,12075.0
0.0,7.0,12459.0,12537.0
0.0,7.0,12618.0,12977.0
2.0,8.0,12977.0,13043.0
3.0,4.0,13043.0,13292.0
3.0,5.0,13043.0,13292.0
3.0,10.0,13043.0,13292.0
3.0,15.0,13043.0,13292.0
3.0,23.0,13043.0,13292.0
4.0,5.0,13043.0,13292.0
4.0,10.0,13043.0,13292.0
4.0,15.0,13043.0,13292.0
4.0,23.0,13043.0,13292.0
5.0,10.0,13043.0,13292.0
5.0,15.0,13043.0,13292.0
5.0,23.0,13043.0,13292.0
10.0,15.0,13043.0,13292.0
10.0,23.0,13043.0,13292.0
15.0,23.0,13043.0,13292.0
4.0,12.0,13292.0,13392.0
1.0,17.0,13392.0,13576.0
1.0,21.0,13392.0,13576.0
17.0,21.0,13392.0,13576.0
3.0,10.0,13959.0,14198.0
3.0,12.0,13959.0,14198.0
3.0,15.0,13959.0,14198.0
3.0,23.0,13959.0,14198.0
10.0,12.0,13959.0,14198.0
10.0,15.0,13959.0,14198.0
10.0,23.0,13959.0,14198.0
12.0,15.0,13959.0,14198.0
12.0,23.0,13959.0,14198.0
15.0,23.0,13959.0,14198.0
1.0,17.0,14198.0,14396.0
1.0,21.0,14198.0,14396.0
17.0,21.0,14198.0,14396.0
9.0,13.0,14396.0,14551.0
12.0,16.0,14669.0,14823.0
5.0,16.0,14823.0,14913.0
10.0,16.0,14913.0,15126.0
5.0,12.0,15187.0,15291.0
1.0,17.0,15319.0,15389.0
1.0,21.0,15319.0,15389.0
17.0,21.0,15319.0,15389.0
10.0,12.0,15407.0,15622.0
10.0,16.0,15407.0,15622.0
12.0,16.0,15407.0,15622.0
10.0,12.0,15631.0,15689.0
1.0,17.0,15689.0,15808.0
10.0,12.0,16521.0,16569.0
6.0,10.0,16569.0,16762.0
6.0,12.0,16569.0,16762.0
10.0,12.0,16569.0,16762.0
4.0,12.0,16875.0,17144.0
9.0,13.0,17278.0,17344.0
9.0,20.0,17278.0,17344.0
13.0,20.0,17278.0,17344.0
9.0,13.0,17344.0,17551.0
9.0,20.0,17344.0,17551.0
13.0,20.0,17344.0,17551.0
2.0,8.0,17730.0,17941.0
1.0,17.0,18194.0,18529.0
1.0,21.0,18194.0,18529.0
17.0,21.0,18194.0,18529.0
10.0,12.0,18642.0,18887.0
1.0,17.0,18887.0,19154.0
1.0,21.0,18887.0,19154.0
17.0,21.0,18887.0,19154.0
3.0,23.0,19154.0,19327.0
3.0,5.0,19420.0,19567.0
3.0,12.0,19420.0,19567.0
5.0,12.0,19420.0,19567.0
2.0,8.0,19567.0,19852.0
6.0,18.0,19964.0,20247.0
4.0,12.0,20247.0,20428.0
0.0,7.0,20954.0,21006.0
0.0,7.0,21006.0,21051.0
4.0,12.0,21065.0,21360.0
4.0,23.0,21065.0,21360.0
12.0,23.0,21065.0,21360.0
12.0,16.0,21360.0,21457.0
2.0,8.0,21540.0,21604.0
2.0,8.0,21637.0,21828.0
0.0,7.0,21828.0,22158.0
0.0,7.0,22158.0,22264.0
10.0,12.0,22391.0,22601.0
0.0,7.0,22601.0,22639.0
0.0,7.0,22639.0,22729.0
2.0,8.0,22729.0,22948.0
2.0,8.0,22948.0,22969.0
10.0,12.0,22989.0,23030.0
10.0,16.0,22989.0,23030.0
12.0,16.0,22989.0,23030.0
10.0,12.0,23030.0,23044.0
10.0,16.0,23030.0,23044.0
12.0,16.0,23030.0,23044.0
4.0,10.0,23044.0,23253.0
4.0,12.0,23044.0,23253.0
4.0,15.0,23044.0,23253.0
4.0,16.0,23044.0,23253.0
4.0,23.0,23044.0,23253.0
10.0,12.0,23044.0,23253.0
10.0,15.0,23044.0,23253.0
10.0,16.0,23044.0,23253.0
10.0,23.0,23044.0,23253.0
12.0,15.0,23044.0,23253.0
12.0,16.0,23044.0,23253.0
12.0,23.0,23044.0,23253.0
15.0,16.0,23044.0,23253.0
15.0,23.0,23044.0,23253.0
16.0,23.0,23044.0,23253.0
3.0,15.0,23627.0,23648.0
12.0,16.0,23685.0,23867.0
0.0,7.0,23867.0,23943.0
3.0,4.0,24032.0,24164.0
3.0,10.0,24032.0,24164.0
3.0,16.0,24032.0,24164.0
4.0,10.0,24032.0,24164.0
4.0,16.0,24032.0,24164.0
10.0,16.0,24032.0,24164.0
9.0,20.0,24164.0,24237.0
1.0,21.0,24364.0,24447.0
1.0,21.0,24447.0,24618.0
0.0,7.0,24618.0,24686.0
2.0,8.0,24827.0,24953.0
2.0,8.0,24953.0,25206.0
9.0,13.0,25206.0,25310.0
9.0,20.0,25206.0,25310.0
13.0,20.0,25206.0,25310.0
13.0,20.0,25310.0,25432.0
0.0,7.0,25568.0,25638.0
9.0,17.0,25663.0,25731.0
9.0,20.0,25663.0,25731.0
17.0,20.0,25663.0,25731.0
17.0,20.0,25731.0,25854.0
1.0,21.0,25854.0,25927.0
1.0,18.0,25927.0,26125.0
1.0,21.0,25927.0,26125.0
18.0,21.0,25927.0,26125.0
9.0,17.0,26125.0,26158.0
9.0,20.0,26125.0,26158.0
17.0,20.0,26125.0,26158.0
9.0,17.0,26165.0,26293.0
9.0,20.0,26165.0,26293.0
17.0,20.0,26165.0,26293.0
3.0,4.0,26303.0,26672.0
3.0,10.0,26303.0,26672.0
3.0,15.0,26303.0,26672.0
3.0,16.0,26303.0,26672.0
3.0,23.0,26303.0,26672.0
4.0,10.0,26303.0,26672.0
4.0,15.0,26303.0,26672.0
4.0,16.0,26303.0,26672.0
4.0,23.0,26303.0,26672.0
10.0,15.0,26303.0,26672.0
10.0,16.0,26303.0,26672.0
10.0,23.0,26303.0,26672.0
15.0,16.0,26303.0,26672.0
15.0,23.0,26303.0,26672.0
16.0,23.0,26303.0,26672.0
12.0,16.0,26816.0,27057.0
9.0,17.0,27057.0,27164.0
9.0,20.0,27057.0,27164.0
17.0,20.0,27057.0,27164.0
0.0,7.0,27524.0,27607.0
9.0,17.0,27621.0,27723.0
9.0,20.0,27621.0,27723.0
17.0,20.0,27621.0,27723.0
1.0,18.0,28071.0,28179.0
1.0,21.0,28179.0,28333.0
2.0,8.0,28333.0,28798.0
1.0,21.0,28798.0,29236.0
1.0,21.0,29236.0,29292.0
1.0,21.0,29292.0,29316.0
1.0,21.0,29316.0,29364.0
1.0,18.0,29364.0,29463.0
1.0,21.0,29364.0,29463.0
18.0,21.0,29364.0,29463.0
17.0,20.0,29484.0,29515.0
6.0,9.0,29515.0,29638.0
6.0,17.0,29515.0,29638.0
6.0,20.0,29515.0,29638.0
9.0,17.0,29515.0,29638.0
9.0,20.0,29515.0,29638.0
17.0,20.0,29515.0,29638.0
3.0,4.0,29696.0,30026.0
3.0,5.0,29696.0,30026.0
3.0,10.0,29696.0,30026.0
3.0,12.0,29696.0,30026.0
3.0,15.0,29696.0,30026.0
3.0,16.0,29696.0,30026.0
3.0,23.0,29696.0,30026.0
4.0,5.0,29696.0,30026.0
4.0,10.0,29696.0,30026.0
4.0,12.0,29696.0,30026.0
4.0,15.0,29696.0,30026.0
4.0,16.0,29696.0,30026.0
4.0,23.0,29696.0,30026.0
5.0,10.0,29696.0,30026.0
5.0,12.0,29696.0,30026.0
5.0,15.0,29696.0,30026.0
5.0,16.0,29696.0,30026.0
5.0,23.0,29696.0,30026.0
10.0,12.0,29696.0,30026.0
10.0,15.0,29696.0,30026.0
10.0,16.0,29696.0,30026.0
10.0,23.0,29696.0,30026.0
12.0,15.0,29696.0,30026.0
12.0,16.0,29696.0,30026.0
12.0,23.0,29696.0,30026.0
15.0,16.0,29696.0,30026.0
15.0,23.0,29696.0,30026.0
16.0,23.0,29696.0,30026.0
3.0,5.0,30163.0,30209.0
3.0,12.0,30163.0,30209.0
3.0,15.0,30163.0,30209.0
3.0,16.0,30163.0,30209.0
5.0,12.0,30163.0,30209.0
5.0,15.0,30163.0,30209.0
5.0,16.0,30163.0,30209.0
12.0,15.0,30163.0,30209.0
12.0,16.0,30163.0,30209.0
15.0,16.0,30163.0,30209.0
17.0,20.0,30393.0,30513.0
3.0,4.0,30513.0,30678.0
3.0,15.0,30513.0,30678.0
3.0,23.0,30513.0,30678.0
4.0,15.0,30513.0,30678.0
4.0,23.0,30513.0,30678.0
15.0,23.0,30513.0,30678.0
3.0,12.0,30678.0,30838.0
3.0,15.0,30678.0,30838.0
3.0,23.0,30678.0,30838.0
12.0,15.0,30678.0,30838.0
12.0,23.0,30678.0,30838.0
15.0,23.0,30678.0,30838.0
9.0,17.0,30838.0,30974.0
9.0,20.0,30838.0,30974.0
17.0,20.0,30838.0,30974.0
6.0,17.0,30974.0,31157.0
1.0,18.0,31189.0,31265.0
1.0,18.0,31265.0,31383.0
2.0,8.0,31383.0,31496.0
2.0,8.0,31496.0,31593.0
0.0,7.0,31677.0,31734.0
0.0,7.0,31818.0,31941.0
10.0,16.0,32298.0,32424.0
10.0,23.0,32298.0,32424.0
16.0,23.0,32298.0,32424.0
2.0,8.0,32772.0,33035.0
2.0,8.0,33035.0,33143.0
3.0,15.0,33292.0,33331.0
3.0,23.0,33292.0,33331.0
15.0,23.0,33292.0,33331.0
1.0,3.0,33335.0,33557.0
1.0,15.0,33335.0,33557.0
1.0,21.0,33335.0,33557.0
1.0,23.0,33335.0,33557.0
3.0,15.0,33335.0,33557.0
3.0,21.0,33335.0,33557.0
3.0,23.0,33335.0,33557.0
15.0,21.0,33335.0,33557.0
15.0,23.0,33335.0,33557.0
21.0,23.0,33335.0,33557.0
1.0,4.0,33557.0,33696.0
1.0,10.0,33557.0,33696.0
1.0,16.0,33557.0,33696.0
4.0,10.0,33557.0,33696.0
4.0,16.0,33557.0,33696.0
10.0,16.0,33557.0,33696.0
1.0,4.0,33696.0,33793.0
2.0,8.0,34033.0,34218.0
0.0,7.0,34271.0,34306.0
0.0,7.0,34306.0,34374.0
11.0,22.0,34645.0,34834.0
11.0,22.0,34893.0,35077.0
6.0,20.0,35077.0,35285.0
4.0,10.0,35384.0,35549.0
9.0,20.0,35549.0,35641.0
9.0,20.0,35641.0,35709.0
17.0,20.0,35709.0,35880.0
4.0,23.0,35880.0,36025.0
1.0,16.0,36601.0,36751.0
1.0,4.0,36751.0,36800.0
1.0,10.0,36751.0,36800.0
1.0,16.0,36751.0,36800.0
4.0,10.0,36751.0,36800.0
4.0,16.0,36751.0,36800.0
10.0,16.0,36751.0,36800.0
1.0,4.0,36800.0,36877.0
1.0,10.0,36800.0,36877.0
1.0,16.0,36800.0,36877.0
4.0,10.0,36800.0,36877.0
4.0,16.0,36800.0,36877.0
10.0,16.0,36800.0,36877.0
0.0,7.0,37012.0,37135.0
2.0,8.0,37135.0,37306.0
1.0,21.0,37727.0,37907.0
1.0,21.0,37907.0,37938.0
1.0,4.0,38867.0,39018.0
11.0,22.0,39018.0,39091.0
0.0,7.0,39534.0,39648.0
14.0,17.0,39940.0,40188.0
14.0,19.0,39940.0,40188.0
17.0,19.0,39940.0,40188.0
14.0,17.0,40188.0,40243.0
14.0,17.0,40243.0,40269.0
3.0,4.0,40627.0,40715.0
1.0,16.0,40927.0,40968.0
1.0,10.0,40968.0,41085.0
1.0,4.0,41403.0,41485.0
1.0,10.0,41602.0,41676.0
1.0,21.0,41602.0,41676.0
10.0,21.0,41602.0,41676.0
1.0,21.0,41676.0,41804.0
1.0,16.0,41804.0,41915.0
3.0,15.0,42933.0,43009.0
3.0,23.0,42933.0,43009.0
15.0,23.0,42933.0,43009.0
1.0,3.0,43009.0,43105.0
1.0,15.0,43009.0,43105.0
1.0,21.0,43009.0,43105.0
1.0,23.0,43009.0,43105.0
3.0,15.0,43009.0,43105.0
3.0,21.0,43009.0,43105.0
3.0,23.0,43009.0,43105.0
15.0,21.0,43009.0,43105.0
15.0,23.0,43009.0,43105.0
21.0,23.0,43009.0,43105.0
1.0,21.0,43105.0,43130.0
15.0,23.0,43130.0,43154.0
10.0,14.0,43362.0,43375.0
10.0,14.0,43375.0,43470.0
10.0,19.0,43470.0,43506.0
10.0,19.0,43506.0,43583.0
2.0,8.0,43583.0,43648.0
10.0,17.0,43784.0,44012.0
11.0,14.0,44193.0,44386.0
11.0,17.0,44193.0,44386.0
11.0,22.0,44193.0,44386.0
14.0,17.0,44193.0,44386.0
14.0,22.0,44193.0,44386.0
17.0,22.0,44193.0,44386.0
2.0,8.0,44386.0,44713.0
5.0,18.0,44761.0,44856.0
11.0,22.0,45087.0,45200.0
14.0,17.0,45538.0,45741.0
10.0,19.0,45758.0,45907.0
1.0,4.0,45911.0,46009.0
1.0,21.0,46009.0,46107.0
11.0,22.0,46107.0,46132.0
11.0,22.0,46132.0,46270.0
1.0,21.0,46270.0,46310.0
1.0,21.0,46310.0,46367.0
5.0,18.0,46591.0,46781.0
0.0,7.0,46938.0,46991.0
0.0,7.0,47012.0,47119.0
1.0,21.0,47119.0,47300.0
2.0,8.0,47448.0,47493.0
2.0,8.0,47493.0,47504.0
2.0,8.0,47504.0,47585.0
2.0,8.0,47585.0,47609.0
14.0,17.0,47632.0,47820.0
0.0,7.0,48029.0,48195.0
2.0,8.0,48368.0,48519.0
9.0,13.0,48745.0,48785.0
9.0,13.0,48785.0,48835.0
9.0,13.0,48835.0,48927.0
9.0,13.0,48927.0,48979.0
9.0,13.0,48979.0,49195.0
5.0,18.0,49356.0,49454.0
5.0,10.0,49454.0,49632.0
5.0,18.0,49454.0,49632.0
10.0,18.0,49454.0,49632.0
1.0,4.0,50013.0,50070.0
1.0,15.0,50013.0,50070.0
4.0,15.0,50013.0,50070.0
3.0,23.0,50070.0,50093.0
3.0,4.0,50093.0,50104.0
3.0,15.0,50093.0,50104.0
3.0,23.0,50093.0,50104.0
4.0,15.0,50093.0,50104.0
4.0,23.0,50093.0,50104.0
15.0,23.0,50093.0,50104.0
1.0,3.0,50104.0,50131.0
1.0,4.0,50104.0,50131.0
1.0,15.0,50104.0,50131.0
1.0,23.0,50104.0,50131.0
3.0,4.0,50104.0,50131.0
3.0,15.0,50104.0,50131.0
3.0,23.0,50104.0,50131.0
4.0,15.0,50104.0,50131.0
4.0,23.0,50104.0,50131.0
15.0,23.0,50104.0,50131.0
1.0,3.0,50131.0,50221.0
1.0,4.0,50131.0,50221.0
1.0,15.0,50131.0,50221.0
1.0,23.0,50131.0,50221.0
3.0,4.0,50131.0,50221.0
3.0,15.0,50131.0,50221.0
3.0,23.0,50131.0,50221.0
4.0,15.0,50131.0,50221.0
4.0,23.0,50131.0,50221.0
15.0,23.0,50131.0,50221.0
1.0,23.0,50240.0,50283.0
1.0,23.0,50297.0,50306.0
3.0,15.0,50306.0,50347.0
1.0,3.0,50356.0,50375.0
1.0,15.0,50356.0,50375.0
1.0,23.0,50356.0,50375.0
3.0,15.0,50356.0,50375.0
3.0,23.0,50356.0,50375.0
15.0,23.0,50356.0,50375.0
5.0,18.0,50655.0,50805.0
14.0,17.0,51056.0,51102.0
14.0,20.0,51056.0,51102.0
17.0,20.0,51056.0,51102.0
14.0,17.0,51102.0,51136.0
14.0,20.0,51102.0,51136.0
17.0,20.0,51102.0,51136.0
17.0,20.0,51300.0,51381.0
5.0,18.0,52268.0,52347.0
5.0,18.0,52347.0,52631.0
3.0,15.0,52631.0,52689.0
2.0,8.0,53126.0,53273.0
3.0,15.0,53518.0,53530.0
3.0,4.0,53530.0,53696.0
2.0,8.0,54314.0,54342.0
14.0,17.0,54342.0,54363.0
6.0,14.0,54404.0,54478.0
6.0,17.0,54404.0,54478.0
14.0,17.0,54404.0,54478.0
6.0,14.0,54478.0,54495.0
6.0,17.0,54478.0,54495.0
14.0,17.0,54478.0,54495.0
1.0,4.0,54495.0,54697.0
14.0,17.0,54697.0,54727.0
6.0,14.0,54727.0,54912.0
6.0,17.0,54727.0,54912.0
14.0,17.0,54727.0,54912.0
17.0,20.0,55575.0,55676.0
6.0,14.0,55683.0,55826.0
5.0,18.0,55826.0,55933.0
5.0,18.0,56008.0,56013.0
1.0,21.0,56071.0,56162.0
1.0,16.0,56162.0,56293.0
1.0,21.0,56162.0,56293.0
16.0,21.0,56162.0,56293.0
1.0,4.0,56575.0,56589.0
1.0,4.0,56589.0,56629.0
1.0,4.0,56629.0,56631.0
1.0,4.0,56631.0,56813.0
1.0,4.0,56813.0,56870.0
1.0,4.0,56870.0,56899.0
11.0,22.0,57485.0,57510.0
11.0,22.0,57510.0,57661.0
1.0,16.0,57661.0,57725.0
1.0,23.0,57661.0,57725.0
16.0,23.0,57661.0,57725.0
1.0,16.0,57725.0,57853.0
2.0,8.0,57853.0,57875.0
2.0,8.0,57875.0,57960.0
15.0,21.0,58655.0,58806.0
1.0,16.0,58806.0,58978.0
1.0,21.0,59024.0,59060.0
1.0,3.0,59060.0,59085.0
1.0,3.0,59085.0,59111.0
1.0,15.0,59085.0,59111.0
1.0,23.0,59085.0,59111.0
3.0,15.0,59085.0,59111.0
3.0,23.0,59085.0,59111.0
15.0,23.0,59085.0,59111.0
3.0,15.0,59113.0,59176.0
3.0,23.0,59113.0,59176.0
15.0,23.0,59113.0,59176.0
15.0,23.0,59204.0,59220.0
1.0,15.0,59230.0,59290.0
1.0,23.0,59230.0,59290.0
15.0,23.0,59230.0,59290.0
3.0,4.0,59322.0,59343.0
3.0,4.0,59343.0,59390.0
3.0,4.0,59390.0,59418.0
3.0,4.0,59418.0,59432.0
1.0,15.0,59437.0,59455.0
1.0,23.0,59437.0,59455.0
15.0,23.0,59437.0,59455.0
1.0,23.0,59464.0,59480.0
1.0,23.0,59483.0,59489.0
1.0,15.0,59535.0,59544.0
1.0,23.0,59535.0,59544.0
15.0,23.0,59535.0,59544.0
1.0,23.0,59568.0,59569.0
11.0,22.0,59576.0,59594.0
1.0,15.0,59598.0,59602.0
1.0,23.0,59598.0,59602.0
15.0,23.0,59598.0,59602.0
1.0,23.0,59621.0,59622.0
1.0,15.0,59647.0,59660.0
1.0,23.0,59647.0,59660.0
15.0,23.0,59647.0,59660.0
3.0,4.0,59724.0,59745.0
3.0,4.0,59745.0,59917.0
3.0,4.0,59917.0,59920.0
3.0,4.0,59920.0,59943.0
1.0,15.0,59962.0,59985.0
1.0,23.0,59962.0,59985.0
15.0,23.0,59962.0,59985.0
1.0,23.0,60053.0,60055.0
1.0,23.0,60073.0,60075.0
3.0,4.0,60138.0,60178.0
3.0,4.0,60178.0,60260.0
3.0,4.0,60260.0,60307.0
3.0,4.0,60307.0,60331.0
15.0,21.0,60331.0,60390.0
15.0,23.0,60427.0,60454.0
1.0,15.0,60454.0,60499.0
1.0,23.0,60454.0,60499.0
15.0,23.0,60454.0,60499.0
1.0,23.0,60564.0,60612.0
3.0,15.0,60845.0,60963.0
4.0,18.0,61243.0,61262.0
3.0,4.0,61476.0,61539.0
3.0,10.0,61476.0,61539.0
3.0,16.0,61476.0,61539.0
3.0,18.0,61476.0,61539.0
3.0,19.0,61476.0,61539.0
3.0,23.0,61476.0,61539.0
4.0,10.0,61476.0,61539.0
4.0,16.0,61476.0,61539.0
4.0,18.0,61476.0,61539.0
4.0,19.0,61476.0,61539.0
4.0,23.0,61476.0,61539.0
10.0,16.0,61476.0,61539.0
10.0,18.0,61476.0,61539.0
10.0,19.0,61476.0,61539.0
10.0,23.0,61476.0,61539.0
16.0,18.0,61476.0,61539.0
16.0,19.0,61476.0,61539.0
16.0,23.0,61476.0,61539.0
18.0,19.0,61476.0,61539.0
18.0,23.0,61476.0,61539.0
19.0,23.0,61476.0,61539.0
3.0,4.0,61539.0,61749.0
3.0,10.0,61539.0,61749.0
3.0,16.0,61539.0,61749.0
3.0,19.0,61539.0,61749.0
3.0,23.0,61539.0,61749.0
4.0,10.0,61539.0,61749.0
4.0,16.0,61539.0,61749.0
4.0,19.0,61539.0,61749.0
4.0,23.0,61539.0,61749.0
10.0,16.0,61539.0,61749.0
10.0,19.0,61539.0,61749.0
10.0,23.0,61539.0,61749.0
16.0,19.0,61539.0,61749.0
16.0,23.0,61539.0,61749.0
19.0,23.0,61539.0,61749.0
3.0,10.0,61749.0,61824.0
6.0,14.0,61971.0,62066.0
6.0,14.0,62066.0,62269.0
17.0,20.0,62269.0,62373.0
1.0,16.0,62996.0,63073.0
1.0,16.0,63073.0,63108.0
2.0,8.0,63325.0,63388.0
2.0,8.0,63388.0,63403.0
2.0,8.0,64593.0,64627.0
2.0,8.0,64627.0,64690.0
2.0,8.0,64690.0,64702.0
2.0,8.0,64702.0,64735.0
1.0,4.0,65761.0,65969.0
4.0,21.0,65969.0,66022.0
1.0,21.0,66022.0,66025.0
1.0,21.0,66025.0,66076.0
17.0,20.0,66445.0,66550.0
1.0,18.0,66550.0,66847.0
3.0,10.0,66910.0,66944.0
3.0,10.0,66944.0,66998.0
3.0,10.0,66998.0,67068.0
2.0,8.0,67068.0,67093.0
2.0,8.0,67093.0,67118.0
2.0,8.0,67118.0,67177.0
11.0,22.0,67196.0,67358.0
19.0,23.0,67390.0,67420.0
19.0,23.0,67521.0,67543.0
4.0,19.0,67543.0,67695.0
4.0,23.0,67543.0,67695.0
19.0,23.0,67543.0,67695.0
2.0,8.0,67709.0,67954.0
2.0,8.0,67954.0,68062.0
2.0,8.0,68062.0,68131.0
0.0,13.0,68293.0,68310.0
0.0,20.0,68293.0,68310.0
13.0,20.0,68293.0,68310.0
17.0,20.0,68459.0,68521.0
6.0,14.0,68564.0,68721.0
6.0,14.0,68721.0,68782.0
4.0,23.0,68782.0,68811.0
4.0,23.0,68811.0,68901.0
4.0,23.0,68901.0,68913.0
3.0,19.0,69031.0,69049.0
3.0,19.0,69049.0,69220.0
3.0,19.0,69220.0,69242.0
3.0,19.0,69242.0,69318.0
3.0,19.0,69318.0,69325.0
19.0,23.0,70506.0,70792.0
5.0,15.0,71169.0,71221.0
6.0,14.0,71221.0,71416.0
6.0,14.0,71416.0,71474.0
17.0,20.0,71589.0,71720.0
1.0,4.0,71863.0,72107.0
1.0,10.0,71863.0,72107.0
1.0,16.0,71863.0,72107.0
1.0,18.0,71863.0,72107.0
4.0,10.0,71863.0,72107.0
4.0,16.0,71863.0,72107.0
4.0,18.0,71863.0,72107.0
10.0,16.0,71863.0,72107.0
10.0,18.0,71863.0,72107.0
16.0,18.0,71863.0,72107.0
6.0,14.0,72124.0,72216.0
5.0,15.0,72256.0,72281.0
2.0,8.0,73179.0,73236.0
2.0,8.0,73236.0,73326.0
2.0,8.0,73326.0,73502.0
2.0,8.0,73502.0,73524.0
2.0,8.0,73524.0,73537.0
2.0,8.0,73554.0,73589.0
1.0,10.0,73589.0,73631.0
1.0,10.0,73631.0,73716.0
1.0,21.0,73716.0,73733.0
1.0,21.0,73733.0,73765.0
1.0,21.0,73765.0,73839.0
1.0,21.0,73839.0,73920.0
1.0,21.0,73920.0,73999.0
6.0,14.0,74216.0,74285.0
6.0,14.0,74359.0,74403.0
6.0,14.0,74444.0,74489.0
6.0,14.0,74675.0,74841.0
1.0,16.0,74841.0,75066.0
1.0,16.0,75066.0,75086.0
13.0,17.0,75279.0,75295.0
19.0,23.0,75418.0,75435.0
4.0,19.0,75435.0,75498.0
4.0,23.0,75435.0,75498.0
19.0,23.0,75435.0,75498.0
19.0,23.0,75563.0,75635.0
4.0,19.0,75625.0,75657.0
4.0,23.0,75625.0,75657.0
19.0,23.0,75625.0,75657.0
4.0,19.0,75657.0,75673.0
4.0,23.0,75657.0,75673.0
19.0,23.0,75657.0,75673.0
6.0,14.0,75934.0,75947.0
6.0,14.0,75947.0,76068.0
4.0,18.0,76068.0,76235.0
3.0,19.0,76478.0,76646.0
5.0,15.0,77029.0,77078.0
5.0,15.0,77078.0,77292.0
2.0,8.0,77292.0,77361.0
2.0,8.0,77361.0,77507.0
2.0,8.0,77507.0,77524.0
2.0,8.0,77531.0,77562.0
2.0,8.0,77574.0,77645.0
2.0,8.0,77645.0,77664.0
5.0,15.0,77778.0,77957.0
5.0,15.0,77957.0,77995.0
5.0,15.0,78374.0,78408.0
6.0,14.0,78408.0,78520.0
4.0,10.0,78619.0,78671.0
17.0,20.0,78931.0,78944.0
17.0,20.0,78944.0,79048.0
17.0,20.0,79048.0,79120.0
17.0,20.0,79120.0,79205.0
6.0,14.0,79692.0,80094.0
2.0,8.0,80200.0,80276.0
3.0,19.0,80606.0,80652.0
3.0,10.0,80708.0,80809.0
1.0,4.0,80809.0,81027.0
1.0,18.0,80809.0,81027.0
4.0,18.0,80809.0,81027.0
17.0,20.0,82686.0,82809.0
17.0,20.0,82809.0,82912.0
6.0,14.0,82912.0,83050.0
1.0,4.0,83528.0,83700.0
1.0,3.0,83741.0,83745.0
1.0,3.0,83745.0,83802.0
10.0,16.0,83802.0,83946.0
17.0,20.0,84401.0,84466.0
17.0,20.0,84466.0,84474.0
3.0,19.0,84830.0,85019.0
1.0,21.0,85019.0,85100.0
18.0,23.0,85100.0,85308.0
2.0,8.0,85308.0,85382.0
2.0,8.0,85449.0,85671.0
2.0,8.0,85671.0,85690.0
5.0,15.0,86073.0,86086.0
6.0,14.0,86086.0,86178.0
6.0,14.0,87310.0,87388.0
6.0,14.0,87388.0,87443.0
6.0,14.0,87443.0,87498.0
6.0,14.0,87498.0,87518.0
5.0,15.0,87632.0,87687.0
5.0,15.0,87687.0,87799.0
2.0,8.0,87808.0,87874.0
2.0,8.0,87874.0,88059.0
2.0,8.0,88059.0,88063.0
11.0,22.0,88221.0,88454.0
1.0,3.0,88596.0,88657.0
1.0,3.0,88657.0,88742.0
4.0,19.0,88745.0,88787.0
4.0,19.0,88787.0,88864.0
1.0,3.0,88864.0,89049.0
1.0,4.0,88864.0,89049.0
1.0,16.0,88864.0,89049.0
1.0,18.0,88864.0,89049.0
1.0,19.0,88864.0,89049.0
1.0,21.0,88864.0,89049.0
1.0,23.0,88864.0,89049.0
3.0,4.0,88864.0,89049.0
3.0,16.0,88864.0,89049.0
3.0,18.0,88864.0,89049.0
3.0,19.0,88864.0,89049.0
3.0,21.0,88864.0,89049.0
3.0,23.0,88864.0,89049.0
4.0,16.0,88864.0,89049.0
4.0,18.0,88864.0,89049.0
4.0,19.0,88864.0,89049.0
4.0,21.0,88864.0,89049.0
4.0,23.0,88864.0,89049.0
16.0,18.0,88864.0,89049.0
16.0,19.0,88864.0,89049.0
16.0,21.0,88864.0,89049.0
16.0,23.0,88864.0,89049.0
18.0,19.0,88864.0,89049.0
18.0,21.0,88864.0,89049.0
18.0,23.0,88864.0,89049.0
19.0,21.0,88864.0,89049.0
19.0,23.0,88864.0,89049.0
21.0,23.0,88864.0,89049.0
11.0,22.0,89383.0,89457.0
4.0,18.0,89457.0,89462.0
4.0,23.0,89457.0,89462.0
18.0,23.0,89457.0,89462.0
1.0,3.0,89462.0,89473.0
1.0,3.0,89473.0,89506.0
1.0,4.0,89473.0,89506.0
1.0,18.0,89473.0,89506.0
1.0,19.0,89473.0,89506.0
1.0,23.0,89473.0,89506.0
3.0,4.0,89473.0,89506.0
3.0,18.0,89473.0,89506.0
3.0,19.0,89473.0,89506.0
3.0,23.0,89473.0,89506.0
4.0,18.0,89473.0,89506.0
4.0,19.0,89473.0,89506.0
4.0,23.0,89473.0,89506.0
18.0,19.0,89473.0,89506.0
18.0,23.0,89473.0,89506.0
19.0,23.0,89473.0,89506.0
1.0,3.0,89506.0,89532.0
1.0,4.0,89506.0,89532.0
1.0,18.0,89506.0,89532.0
1.0,23.0,89506.0,89532.0
3.0,4.0,89506.0,89532.0
3.0,18.0,89506.0,89532.0
3.0,23.0,89506.0,89532.0
4.0,18.0,89506.0,89532.0
4.0,23.0,89506.0,89532.0
18.0,23.0,89506.0,89532.0
4.0,19.0,89532.0,89548.0
4.0,23.0,89532.0,89548.0
19.0,23.0,89532.0,89548.0
1.0,1.0,89559.0,89563.0
1.0,3.0,89559.0,89563.0
1.0,16.0,89559.0,89563.0
1.0,18.0,89559.0,89563.0
1.0,3.0,89559.0,89563.0
1.0,16.0,89559.0,89563.0
1.0,18.0,89559.0,89563.0
3.0,16.0,89559.0,89563.0
3.0,18.0,89559.0,89563.0
16.0,18.0,89559.0,89563.0
1.0,18.0,89624.0,89633.0
1.0,19.0,89624.0,89633.0
18.0,19.0,89624.0,89633.0
3.0,23.0,89683.0,89698.0
3.0,23.0,89698.0,89730.0
1.0,3.0,89730.0,89842.0
1.0,18.0,89730.0,89842.0
1.0,19.0,89730.0,89842.0
1.0,23.0,89730.0,89842.0
3.0,18.0,89730.0,89842.0
3.0,19.0,89730.0,89842.0
3.0,23.0,89730.0,89842.0
18.0,19.0,89730.0,89842.0
18.0,23.0,89730.0,89842.0
19.0,23.0,89730.0,89842.0
1.0,3.0,89842.0,89847.0
1.0,3.0,89847.0,90091.0
1.0,3.0,90340.0,90393.0
17.0,20.0,90932.0,91048.0
17.0,20.0,91070.0,91377.0
2.0,8.0,91386.0,91479.0
2.0,8.0,91479.0,91499.0
5.0,15.0,91597.0,91702.0
5.0,15.0,91883.0,92032.0
17.0,20.0,92583.0,92740.0
2.0,8.0,92958.0,92992.0
2.0,8.0,92992.0,93013.0
17.0,20.0,93013.0,93050.0
17.0,20.0,93100.0,93107.0
17.0,20.0,93107.0,93145.0
17.0,20.0,93145.0,93202.0
17.0,20.0,93202.0,93242.0
17.0,20.0,93242.0,93249.0
17.0,20.0,93324.0,93336.0
5.0,15.0,93377.0,93400.0
5.0,15.0,93400.0,93423.0
17.0,20.0,93430.0,93472.0
5.0,15.0,93587.0,93611.0
17.0,20.0,93650.0,93736.0
17.0,20.0,93736.0,93754.0
5.0,15.0,93936.0,93951.0
5.0,15.0,93951.0,93972.0
5.0,20.0,93951.0,93972.0
15.0,20.0,93951.0,93972.0
5.0,15.0,93972.0,93987.0
1.0,3.0,93987.0,94010.0
1.0,3.0,94010.0,94090.0
1.0,3.0,94090.0,94099.0
1.0,4.0,94099.0,94299.0
1.0,16.0,94099.0,94299.0
1.0,18.0,94099.0,94299.0
1.0,23.0,94099.0,94299.0
4.0,16.0,94099.0,94299.0
4.0,18.0,94099.0,94299.0
4.0,23.0,94099.0,94299.0
16.0,18.0,94099.0,94299.0
16.0,23.0,94099.0,94299.0
18.0,23.0,94099.0,94299.0
1.0,16.0,94299.0,94317.0
1.0,18.0,94299.0,94317.0
16.0,18.0,94299.0,94317.0
1.0,18.0,94317.0,94523.0
1.0,3.0,94523.0,94557.0
7.0,13.0,95081.0,95212.0
7.0,13.0,95408.0,95525.0
1.0,4.0,95926.0,95933.0
1.0,4.0,95933.0,96108.0
5.0,15.0,96108.0,96238.0
11.0,22.0,96626.0,96777.0
0.0,7.0,96881.0,96922.0
6.0,14.0,96931.0,96951.0
6.0,14.0,96951.0,96967.0
4.0,6.0,96967.0,97012.0
11.0,22.0,97012.0,97183.0
2.0,8.0,97183.0,97350.0
2.0,8.0,97350.0,97382.0
2.0,8.0,97382.0,97450.0
6.0,18.0,97679.0,97852.0
1.0,21.0,97852.0,97945.0
1.0,21.0,97945.0,98028.0
1.0,21.0,98297.0,98307.0
1.0,21.0,98307.0,98345.0
1.0,21.0,98345.0,98356.0
2.0,8.0,98506.0,98552.0
2.0,8.0,98552.0,98567.0
2.0,8.0,98567.0,98610.0
1.0,3.0,98702.0,98743.0
1.0,3.0,98743.0,98851.0
4.0,6.0,98976.0,99041.0
4.0,6.0,99041.0,99163.0
4.0,6.0,99163.0,99171.0
0.0,7.0,99401.0,99464.0
14.0,19.0,99698.0,99730.0
14.0,19.0,99730.0,99766.0
6.0,23.0,99766.0,99881.0
2.0,8.0,100013.0,100056.0
3.0,6.0,100056.0,100067.0
3.0,14.0,100056.0,100067.0
6.0,14.0,100056.0,100067.0
6.0,14.0,100067.0,100125.0
5.0,15.0,100259.0,100350.0
5.0,15.0,100350.0,100392.0
5.0,15.0,100392.0,100410.0
5.0,15.0,100410.0,100475.0
5.0,15.0,100475.0,100505.0
5.0,15.0,100505.0,100792.0
5.0,15.0,100847.0,100874.0
1.0,6.0,101129.0,101174.0
1.0,6.0,101174.0,101230.0
6.0,21.0,101230.0,101325.0
1.0,16.0,101694.0,101757.0
1.0,3.0,101757.0,101776.0
1.0,4.0,101757.0,101776.0
1.0,18.0,101757.0,101776.0
1.0,23.0,101757.0,101776.0
3.0,4.0,101757.0,101776.0
3.0,18.0,101757.0,101776.0
3.0,23.0,101757.0,101776.0
4.0,18.0,101757.0,101776.0
4.0,23.0,101757.0,101776.0
18.0,23.0,101757.0,101776.0
1.0,3.0,101776.0,101797.0
1.0,4.0,101776.0,101797.0
1.0,18.0,101776.0,101797.0
1.0,23.0,101776.0,101797.0
3.0,4.0,101776.0,101797.0
3.0,18.0,101776.0,101797.0
3.0,23.0,101776.0,101797.0
4.0,18.0,101776.0,101797.0
4.0,23.0,101776.0,101797.0
18.0,23.0,101776.0,101797.0
1.0,3.0,101797.0,101838.0
1.0,4.0,101797.0,101838.0
1.0,18.0,101797.0,101838.0
1.0,23.0,101797.0,101838.0
3.0,4.0,101797.0,101838.0
3.0,18.0,101797.0,101838.0
3.0,23.0,101797.0,101838.0
4.0,18.0,101797.0,101838.0
4.0,23.0,101797.0,101838.0
18.0,23.0,101797.0,101838.0
1.0,3.0,101840.0,101882.0
1.0,4.0,101840.0,101882.0
1.0,18.0,101840.0,101882.0
1.0,23.0,101840.0,101882.0
3.0,4.0,101840.0,101882.0
3.0,18.0,101840.0,101882.0
3.0,23.0,101840.0,101882.0
4.0,18.0,101840.0,101882.0
4.0,23.0,101840.0,101882.0
18.0,23.0,101840.0,101882.0
1.0,3.0,101884.0,101909.0
1.0,4.0,101884.0,101909.0
1.0,18.0,101884.0,101909.0
1.0,23.0,101884.0,101909.0
3.0,4.0,101884.0,101909.0
3.0,18.0,101884.0,101909.0
3.0,23.0,101884.0,101909.0
4.0,18.0,101884.0,101909.0
4.0,23.0,101884.0,101909.0
18.0,23.0,101884.0,101909.0
1.0,21.0,102036.0,102062.0
11.0,22.0,102075.0,102108.0
11.0,22.0,102108.0,102128.0
11.0,22.0,102128.0,102152.0
12.0,13.0,102524.0,102558.0
4.0,16.0,102576.0,102614.0
4.0,18.0,102576.0,102614.0
4.0,19.0,102576.0,102614.0
4.0,23.0,102576.0,102614.0
16.0,18.0,102576.0,102614.0
16.0,19.0,102576.0,102614.0
16.0,23.0,102576.0,102614.0
18.0,19.0,102576.0,102614.0
18.0,23.0,102576.0,102614.0
19.0,23.0,102576.0,102614.0
1.0,4.0,102610.0,102617.0
1.0,6.0,102610.0,102617.0
1.0,16.0,102610.0,102617.0
1.0,18.0,102610.0,102617.0
1.0,19.0,102610.0,102617.0
1.0,23.0,102610.0,102617.0
4.0,6.0,102610.0,102617.0
4.0,16.0,102610.0,102617.0
4.0,18.0,102610.0,102617.0
4.0,19.0,102610.0,102617.0
4.0,23.0,102610.0,102617.0
6.0,16.0,102610.0,102617.0
6.0,18.0,102610.0,102617.0
6.0,19.0,102610.0,102617.0
6.0,23.0,102610.0,102617.0
16.0,18.0,102610.0,102617.0
16.0,19.0,102610.0,102617.0
16.0,23.0,102610.0,102617.0
18.0,19.0,102610.0,102617.0
18.0,23.0,102610.0,102617.0
19.0,23.0,102610.0,102617.0
19.0,23.0,102617.0,102620.0
1.0,4.0,102620.0,102625.0
1.0,6.0,102620.0,102625.0
1.0,18.0,102620.0,102625.0
1.0,19.0,102620.0,102625.0
1.0,23.0,102620.0,102625.0
4.0,6.0,102620.0,102625.0
4.0,18.0,102620.0,102625.0
4.0,19.0,102620.0,102625.0
4.0,23.0,102620.0,102625.0
6.0,18.0,102620.0,102625.0
6.0,19.0,102620.0,102625.0
6.0,23.0,102620.0,102625.0
18.0,19.0,102620.0,102625.0
18.0,23.0,102620.0,102625.0
19.0,23.0,102620.0,102625.0
19.0,23.0,102625.0,102628.0
18.0,19.0,102633.0,102644.0
18.0,23.0,102633.0,102644.0
19.0,23.0,102633.0,102644.0
1.0,4.0,102644.0,102655.0
1.0,6.0,102644.0,102655.0
1.0,18.0,102644.0,102655.0
4.0,6.0,102644.0,102655.0
4.0,18.0,102644.0,102655.0
6.0,18.0,102644.0,102655.0
19.0,23.0,102655.0,102662.0
1.0,3.0,102662.0,102668.0
19.0,23.0,102668.0,102674.0
1.0,21.0,102734.0,102777.0
3.0,4.0,102792.0,102806.0
3.0,23.0,102792.0,102806.0
4.0,23.0,102792.0,102806.0
1.0,3.0,102822.0,102824.0
1.0,3.0,102824.0,102827.0
1.0,4.0,102824.0,102827.0
1.0,19.0,102824.0,102827.0
1.0,23.0,102824.0,102827.0
3.0,4.0,102824.0,102827.0
3.0,19.0,102824.0,102827.0
3.0,23.0,102824.0,102827.0
4.0,19.0,102824.0,102827.0
4.0,23.0,102824.0,102827.0
19.0,23.0,102824.0,102827.0
1.0,3.0,102827.0,102846.0
1.0,4.0,102827.0,102846.0
3.0,4.0,102827.0,102846.0
19.0,23.0,102853.0,102860.0
1.0,3.0,102862.0,102876.0
1.0,19.0,102862.0,102876.0
1.0,23.0,102862.0,102876.0
3.0,19.0,102862.0,102876.0
3.0,23.0,102862.0,102876.0
19.0,23.0,102862.0,102876.0
4.0,19.0,102879.0,102885.0
4.0,23.0,102879.0,102885.0
19.0,23.0,102879.0,102885.0
1.0,3.0,102885.0,102894.0
1.0,19.0,102885.0,102894.0
1.0,23.0,102885.0,102894.0
3.0,19.0,102885.0,102894.0
3.0,23.0,102885.0,102894.0
19.0,23.0,102885.0,102894.0
1.0,3.0,102894.0,102932.0
1.0,4.0,102894.0,102932.0
1.0,16.0,102894.0,102932.0
1.0,19.0,102894.0,102932.0
1.0,23.0,102894.0,102932.0
3.0,4.0,102894.0,102932.0
3.0,16.0,102894.0,102932.0
3.0,19.0,102894.0,102932.0
3.0,23.0,102894.0,102932.0
4.0,16.0,102894.0,102932.0
4.0,19.0,102894.0,102932.0
4.0,23.0,102894.0,102932.0
16.0,19.0,102894.0,102932.0
16.0,23.0,102894.0,102932.0
19.0,23.0,102894.0,102932.0
4.0,6.0,102946.0,103000.0
4.0,19.0,102946.0,103000.0
4.0,23.0,102946.0,103000.0
6.0,19.0,102946.0,103000.0
6.0,23.0,102946.0,103000.0
19.0,23.0,102946.0,103000.0
1.0,3.0,103000.0,103045.0
1.0,4.0,103000.0,103045.0
1.0,14.0,103000.0,103045.0
1.0,19.0,103000.0,103045.0
1.0,23.0,103000.0,103045.0
3.0,4.0,103000.0,103045.0
3.0,14.0,103000.0,103045.0
3.0,19.0,103000.0,103045.0
3.0,23.0,103000.0,103045.0
4.0,14.0,103000.0,103045.0
4.0,19.0,103000.0,103045.0
4.0,23.0,103000.0,103045.0
14.0,19.0,103000.0,103045.0
14.0,23.0,103000.0,103045.0
19.0,23.0,103000.0,103045.0
4.0,6.0,103045.0,103052.0
4.0,14.0,103045.0,103052.0
4.0,18.0,103045.0,103052.0
4.0,19.0,103045.0,103052.0
4.0,23.0,103045.0,103052.0
6.0,14.0,103045.0,103052.0
6.0,18.0,103045.0,103052.0
6.0,19.0,103045.0,103052.0
6.0,23.0,103045.0,103052.0
14.0,18.0,103045.0,103052.0
14.0,19.0,103045.0,103052.0
14.0,23.0,103045.0,103052.0
18.0,19.0,103045.0,103052.0
18.0,23.0,103045.0,103052.0
19.0,23.0,103045.0,103052.0
1.0,3.0,103052.0,103115.0
1.0,4.0,103052.0,103115.0
1.0,6.0,103052.0,103115.0
1.0,14.0,103052.0,103115.0
1.0,16.0,103052.0,103115.0
1.0,23.0,103052.0,103115.0
3.0,4.0,103052.0,103115.0
3.0,6.0,103052.0,103115.0
3.0,14.0,103052.0,103115.0
3.0,16.0,103052.0,103115.0
3.0,23.0,103052.0,103115.0
4.0,6.0,103052.0,103115.0
4.0,14.0,103052.0,103115.0
4.0,16.0,103052.0,103115.0
4.0,23.0,103052.0,103115.0
6.0,14.0,103052.0,103115.0
6.0,16.0,103052.0,103115.0
6.0,23.0,103052.0,103115.0
14.0,16.0,103052.0,103115.0
14.0,23.0,103052.0,103115.0
16.0,23.0,103052.0,103115.0
1.0,3.0,103115.0,103120.0
1.0,4.0,103115.0,103120.0
1.0,6.0,103115.0,103120.0
1.0,23.0,103115.0,103120.0
3.0,4.0,103115.0,103120.0
3.0,6.0,103115.0,103120.0
3.0,23.0,103115.0,103120.0
4.0,6.0,103115.0,103120.0
4.0,23.0,103115.0,103120.0
6.0,23.0,103115.0,103120.0
1.0,3.0,103179.0,103206.0
1.0,6.0,103179.0,103206.0
1.0,19.0,103179.0,103206.0
1.0,23.0,103179.0,103206.0
3.0,6.0,103179.0,103206.0
3.0,19.0,103179.0,103206.0
3.0,23.0,103179.0,103206.0
6.0,19.0,103179.0,103206.0
6.0,23.0,103179.0,103206.0
19.0,23.0,103179.0,103206.0
4.0,18.0,103206.0,103296.0
1.0,3.0,103296.0,103329.0
1.0,4.0,103296.0,103329.0
1.0,6.0,103296.0,103329.0
1.0,18.0,103296.0,103329.0
1.0,19.0,103296.0,103329.0
1.0,23.0,103296.0,103329.0
3.0,4.0,103296.0,103329.0
3.0,6.0,103296.0,103329.0
3.0,18.0,103296.0,103329.0
3.0,19.0,103296.0,103329.0
3.0,23.0,103296.0,103329.0
4.0,6.0,103296.0,103329.0
4.0,18.0,103296.0,103329.0
4.0,19.0,103296.0,103329.0
4.0,23.0,103296.0,103329.0
6.0,18.0,103296.0,103329.0
6.0,19.0,103296.0,103329.0
6.0,23.0,103296.0,103329.0
18.0,19.0,103296.0,103329.0
18.0,23.0,103296.0,103329.0
19.0,23.0,103296.0,103329.0
1.0,3.0,103329.0,103601.0
1.0,4.0,103329.0,103601.0
1.0,16.0,103329.0,103601.0
1.0,18.0,103329.0,103601.0
1.0,19.0,103329.0,103601.0
1.0,23.0,103329.0,103601.0
3.0,4.0,103329.0,103601.0
3.0,16.0,103329.0,103601.0
3.0,18.0,103329.0,103601.0
3.0,19.0,103329.0,103601.0
3.0,23.0,103329.0,103601.0
4.0,16.0,103329.0,103601.0
4.0,18.0,103329.0,103601.0
4.0,19.0,103329.0,103601.0
4.0,23.0,103329.0,103601.0
16.0,18.0,103329.0,103601.0
16.0,19.0,103329.0,103601.0
16.0,23.0,103329.0,103601.0
18.0,19.0,103329.0,103601.0
18.0,23.0,103329.0,103601.0
19.0,23.0,103329.0,103601.0
1.0,3.0,103601.0,103662.0
1.0,4.0,103601.0,103662.0
1.0,18.0,103601.0,103662.0
1.0,19.0,103601.0,103662.0
1.0,23.0,103601.0,103662.0
3.0,4.0,103601.0,103662.0
3.0,18.0,103601.0,103662.0
3.0,19.0,103601.0,103662.0
3.0,23.0,103601.0,103662.0
4.0,18.0,103601.0,103662.0
4.0,19.0,103601.0,103662.0
4.0,23.0,103601.0,103662.0
18.0,19.0,103601.0,103662.0
18.0,23.0,103601.0,103662.0
19.0,23.0,103601.0,103662.0
1.0,3.0,103662.0,103829.0
1.0,4.0,103662.0,103829.0
1.0,18.0,103662.0,103829.0
1.0,19.0,103662.0,103829.0
1.0,23.0,103662.0,103829.0
3.0,4.0,103662.0,103829.0
3.0,18.0,103662.0,103829.0
3.0,19.0,103662.0,103829.0
3.0,23.0,103662.0,103829.0
4.0,18.0,103662.0,103829.0
4.0,19.0,103662.0,103829.0
4.0,23.0,103662.0,103829.0
18.0,19.0,103662.0,103829.0
18.0,23.0,103662.0,103829.0
19.0,23.0,103662.0,103829.0
1.0,3.0,103829.0,103850.0
1.0,4.0,103829.0,103850.0
1.0,6.0,103829.0,103850.0
1.0,18.0,103829.0,103850.0
1.0,19.0,103829.0,103850.0
1.0,23.0,103829.0,103850.0
3.0,4.0,103829.0,103850.0
3.0,6.0,103829.0,103850.0
3.0,18.0,103829.0,103850.0
3.0,19.0,103829.0,103850.0
3.0,23.0,103829.0,103850.0
4.0,6.0,103829.0,103850.0
4.0,18.0,103829.0,103850.0
4.0,19.0,103829.0,103850.0
4.0,23.0,103829.0,103850.0
6.0,18.0,103829.0,103850.0
6.0,19.0,103829.0,103850.0
6.0,23.0,103829.0,103850.0
18.0,19.0,103829.0,103850.0
18.0,23.0,103829.0,103850.0
19.0,23.0,103829.0,103850.0
1.0,3.0,103852.0,103917.0
1.0,4.0,103852.0,103917.0
1.0,6.0,103852.0,103917.0
1.0,18.0,103852.0,103917.0
1.0,19.0,103852.0,103917.0
1.0,23.0,103852.0,103917.0
3.0,4.0,103852.0,103917.0
3.0,6.0,103852.0,103917.0
3.0,18.0,103852.0,103917.0
3.0,19.0,103852.0,103917.0
3.0,23.0,103852.0,103917.0
4.0,6.0,103852.0,103917.0
4.0,18.0,103852.0,103917.0
4.0,19.0,103852.0,103917.0
4.0,23.0,103852.0,103917.0
6.0,18.0,103852.0,103917.0
6.0,19.0,103852.0,103917.0
6.0,23.0,103852.0,103917.0
18.0,19.0,103852.0,103917.0
18.0,23.0,103852.0,103917.0
19.0,23.0,103852.0,103917.0
1.0,4.0,103917.0,103944.0
1.0,6.0,103917.0,103944.0
1.0,18.0,103917.0,103944.0
1.0,23.0,103917.0,103944.0
4.0,6.0,103917.0,103944.0
4.0,18.0,103917.0,103944.0
4.0,23.0,103917.0,103944.0
6.0,18.0,103917.0,103944.0
6.0,23.0,103917.0,103944.0
18.0,23.0,103917.0,103944.0
1.0,4.0,104059.0,104071.0
1.0,23.0,104059.0,104071.0
4.0,23.0,104059.0,104071.0
1.0,4.0,104071.0,104077.0
1.0,18.0,104071.0,104077.0
4.0,18.0,104071.0,104077.0
4.0,18.0,104080.0,104085.0
3.0,10.0,104183.0,104224.0
3.0,10.0,104224.0,104248.0
3.0,10.0,104248.0,104307.0
3.0,10.0,104307.0,104319.0
4.0,18.0,104418.0,104522.0
4.0,23.0,104418.0,104522.0
18.0,23.0,104418.0,104522.0
4.0,18.0,104522.0,104527.0
4.0,23.0,104522.0,104527.0
18.0,23.0,104522.0,104527.0
4.0,18.0,104527.0,104659.0
4.0,23.0,104527.0,104659.0
18.0,23.0,104527.0,104659.0
4.0,6.0,104649.0,104678.0
4.0,18.0,104649.0,104678.0
4.0,23.0,104649.0,104678.0
6.0,18.0,104649.0,104678.0
6.0,23.0,104649.0,104678.0
18.0,23.0,104649.0,104678.0
4.0,6.0,104678.0,104689.0
4.0,23.0,104678.0,104689.0
6.0,23.0,104678.0,104689.0
4.0,6.0,104689.0,104875.0
4.0,23.0,104689.0,104875.0
6.0,23.0,104689.0,104875.0
5.0,15.0,104875.0,104938.0
5.0,15.0,104938.0,105002.0
5.0,15.0,105002.0,105192.0
5.0,15.0,105192.0,105218.0
5.0,15.0,105218.0,105256.0
11.0,22.0,105474.0,105584.0
2.0,8.0,106831.0,106855.0
2.0,8.0,106855.0,106878.0
2.0,8.0,106878.0,106917.0
2.0,8.0,106917.0,106940.0
2.0,8.0,106943.0,106967.0
2.0,8.0,106967.0,107040.0
2.0,8.0,107105.0,107274.0
2.0,8.0,107746.0,107810.0
2.0,8.0,107810.0,107824.0
6.0,21.0,107883.0,108015.0
1.0,6.0,108015.0,108176.0
3.0,10.0,108176.0,108358.0
4.0,6.0,108755.0,108909.0
6.0,14.0,109125.0,109260.0
6.0,14.0,109260.0,109391.0
6.0,21.0,109260.0,109391.0
14.0,21.0,109260.0,109391.0
0.0,7.0,109391.0,109472.0
0.0,7.0,109472.0,109480.0
4.0,6.0,110464.0,110523.0
4.0,16.0,110464.0,110523.0
4.0,18.0,110464.0,110523.0
4.0,19.0,110464.0,110523.0
6.0,16.0,110464.0,110523.0
6.0,18.0,110464.0,110523.0
6.0,19.0,110464.0,110523.0
16.0,18.0,110464.0,110523.0
16.0,19.0,110464.0,110523.0
18.0,19.0,110464.0,110523.0
4.0,16.0,110523.0,110567.0
4.0,18.0,110523.0,110567.0
4.0,19.0,110523.0,110567.0
16.0,18.0,110523.0,110567.0
16.0,19.0,110523.0,110567.0
18.0,19.0,110523.0,110567.0
4.0,18.0,110567.0,110609.0
4.0,19.0,110567.0,110609.0
18.0,19.0,110567.0,110609.0
4.0,19.0,110609.0,110660.0
4.0,6.0,110660.0,110668.0
4.0,18.0,110660.0,110668.0
4.0,19.0,110660.0,110668.0
6.0,18.0,110660.0,110668.0
6.0,19.0,110660.0,110668.0
18.0,19.0,110660.0,110668.0
4.0,19.0,110668.0,110716.0
4.0,19.0,110716.0,110725.0
4.0,6.0,110725.0,110730.0
4.0,18.0,110725.0,110730.0
4.0,19.0,110725.0,110730.0
6.0,18.0,110725.0,110730.0
6.0,19.0,110725.0,110730.0
18.0,19.0,110725.0,110730.0
4.0,19.0,110730.0,110743.0
4.0,19.0,110743.0,110749.0
2.0,8.0,110749.0,110870.0
2.0,8.0,110870.0,110968.0
3.0,10.0,110968.0,111057.0
3.0,10.0,111057.0,111091.0
3.0,10.0,111091.0,111245.0
4.0,18.0,111392.0,111605.0
5.0,15.0,111605.0,111705.0
5.0,15.0,112037.0,112144.0
0.0,13.0,113082.0,113094.0
0.0,13.0,113094.0,113134.0
11.0,22.0,113574.0,113621.0
11.0,22.0,113621.0,113666.0
11.0,22.0,113666.0,113929.0
2.0,8.0,114648.0,114752.0
2.0,8.0,114752.0,114939.0
2.0,8.0,114939.0,114959.0
4.0,16.0,114959.0,114978.0
4.0,16.0,114978.0,115126.0
4.0,18.0,114978.0,115126.0
16.0,18.0,114978.0,115126.0
1.0,6.0,115271.0,115319.0
1.0,4.0,115319.0,115431.0
1.0,6.0,115319.0,115431.0
1.0,18.0,115319.0,115431.0
1.0,19.0,115319.0,115431.0
4.0,6.0,115319.0,115431.0
4.0,18.0,115319.0,115431.0
4.0,19.0,115319.0,115431.0
6.0,18.0,115319.0,115431.0
6.0,19.0,115319.0,115431.0
18.0,19.0,115319.0,115431.0
1.0,4.0,115431.0,115483.0
1.0,6.0,115431.0,115483.0
1.0,18.0,115431.0,115483.0
4.0,6.0,115431.0,115483.0
4.0,18.0,115431.0,115483.0
6.0,18.0,115431.0,115483.0
1.0,4.0,115483.0,115531.0
1.0,6.0,115483.0,115531.0
1.0,18.0,115483.0,115531.0
4.0,6.0,115483.0,115531.0
4.0,18.0,115483.0,115531.0
6.0,18.0,115483.0,115531.0
1.0,4.0,115531.0,115634.0
1.0,6.0,115531.0,115634.0
1.0,18.0,115531.0,115634.0
1.0,19.0,115531.0,115634.0
4.0,6.0,115531.0,115634.0
4.0,18.0,115531.0,115634.0
4.0,19.0,115531.0,115634.0
6.0,18.0,115531.0,115634.0
6.0,19.0,115531.0,115634.0
18.0,19.0,115531.0,115634.0
1.0,4.0,115634.0,115709.0
1.0,6.0,115634.0,115709.0
1.0,18.0,115634.0,115709.0
1.0,19.0,115634.0,115709.0
4.0,6.0,115634.0,115709.0
4.0,18.0,115634.0,115709.0
4.0,19.0,115634.0,115709.0
6.0,18.0,115634.0,115709.0
6.0,19.0,115634.0,115709.0
18.0,19.0,115634.0,115709.0
1.0,4.0,115709.0,115791.0
1.0,6.0,115709.0,115791.0
1.0,16.0,115709.0,115791.0
1.0,18.0,115709.0,115791.0
4.0,6.0,115709.0,115791.0
4.0,16.0,115709.0,115791.0
4.0,18.0,115709.0,115791.0
6.0,16.0,115709.0,115791.0
6.0,18.0,115709.0,115791.0
16.0,18.0,115709.0,115791.0
1.0,4.0,115791.0,115825.0
1.0,6.0,115791.0,115825.0
1.0,18.0,115791.0,115825.0
4.0,6.0,115791.0,115825.0
4.0,18.0,115791.0,115825.0
6.0,18.0,115791.0,115825.0
6.0,18.0,115825.0,115962.0
1.0,4.0,115962.0,116040.0
1.0,6.0,115962.0,116040.0
1.0,18.0,115962.0,116040.0
1.0,19.0,115962.0,116040.0
4.0,6.0,115962.0,116040.0
4.0,18.0,115962.0,116040.0
4.0,19.0,115962.0,116040.0
6.0,18.0,115962.0,116040.0
6.0,19.0,115962.0,116040.0
18.0,19.0,115962.0,116040.0
1.0,4.0,116040.0,116307.0
1.0,6.0,116040.0,116307.0
1.0,18.0,116040.0,116307.0
1.0,19.0,116040.0,116307.0
4.0,6.0,116040.0,116307.0
4.0,18.0,116040.0,116307.0
4.0,19.0,116040.0,116307.0
6.0,18.0,116040.0,116307.0
6.0,19.0,116040.0,116307.0
18.0,19.0,116040.0,116307.0
1.0,4.0,116307.0,116419.0
1.0,6.0,116307.0,116419.0
1.0,18.0,116307.0,116419.0
1.0,19.0,116307.0,116419.0
4.0,6.0,116307.0,116419.0
4.0,18.0,116307.0,116419.0
4.0,19.0,116307.0,116419.0
6.0,18.0,116307.0,116419.0
6.0,19.0,116307.0,116419.0
18.0,19.0,116307.0,116419.0
1.0,6.0,116533.0,116715.0
5.0,15.0,116775.0,116811.0
5.0,15.0,116811.0,116997.0
5.0,15.0,116997.0,117004.0
5.0,15.0,117004.0,117059.0
5.0,15.0,117059.0,117068.0
0.0,7.0,117068.0,117086.0
0.0,7.0,117086.0,117120.0
0.0,7.0,117120.0,117238.0
1.0,21.0,117238.0,117506.0
2.0,8.0,117919.0,118095.0
5.0,15.0,118095.0,118288.0
3.0,10.0,119070.0,119158.0
3.0,10.0,119158.0,119197.0
3.0,10.0,119309.0,119401.0
0.0,7.0,119813.0,119924.0
3.0,10.0,120651.0,120926.0
2.0,8.0,121171.0,121362.0
3.0,10.0,121564.0,121643.0
5.0,15.0,121643.0,121732.0
5.0,15.0,121732.0,121771.0
3.0,10.0,121813.0,121838.0
1.0,6.0,121838.0,122183.0
4.0,6.0,122200.0,122205.0
4.0,16.0,122200.0,122205.0
4.0,18.0,122200.0,122205.0
6.0,16.0,122200.0,122205.0
6.0,18.0,122200.0,122205.0
16.0,18.0,122200.0,122205.0
1.0,4.0,122228.0,122249.0
1.0,6.0,122228.0,122249.0
1.0,16.0,122228.0,122249.0
1.0,18.0,122228.0,122249.0
4.0,6.0,122228.0,122249.0
4.0,16.0,122228.0,122249.0
4.0,18.0,122228.0,122249.0
6.0,16.0,122228.0,122249.0
6.0,18.0,122228.0,122249.0
16.0,18.0,122228.0,122249.0
1.0,4.0,122249.0,122495.0
1.0,6.0,122249.0,122495.0
1.0,16.0,122249.0,122495.0
1.0,18.0,122249.0,122495.0
4.0,6.0,122249.0,122495.0
4.0,16.0,122249.0,122495.0
4.0,18.0,122249.0,122495.0
6.0,16.0,122249.0,122495.0
6.0,18.0,122249.0,122495.0
16.0,18.0,122249.0,122495.0
1.0,4.0,122495.0,122523.0
1.0,6.0,122495.0,122523.0
1.0,18.0,122495.0,122523.0
4.0,6.0,122495.0,122523.0
4.0,18.0,122495.0,122523.0
6.0,18.0,122495.0,122523.0
0.0,7.0,122687.0,122886.0
0.0,7.0,124758.0,124807.0
0.0,7.0,124872.0,124896.0
0.0,7.0,124896.0,124958.0
0.0,7.0,124958.0,124977.0
0.0,7.0,125284.0,125392.0
0.0,7.0,125392.0,125447.0
0.0,7.0,125447.0,125526.0
0.0,11.0,126192.0,126348.0
0.0,22.0,126192.0,126348.0
11.0,22.0,126192.0,126348.0
0.0,22.0,126348.0,126364.0
4.0,18.0,126494.0,126674.0
4.0,6.0,126674.0,126789.0
0.0,7.0,127250.0,127312.0
0.0,11.0,127250.0,127312.0
0.0,22.0,127250.0,127312.0
7.0,11.0,127250.0,127312.0
7.0,22.0,127250.0,127312.0
11.0,22.0,127250.0,127312.0
5.0,14.0,128057.0,128140.0
5.0,14.0,128140.0,128294.0
5.0,15.0,128140.0,128294.0
14.0,15.0,128140.0,128294.0
14.0,15.0,128294.0,128444.0
5.0,14.0,128444.0,128462.0
5.0,15.0,128462.0,128710.0
1.0,6.0,128710.0,128793.0
1.0,18.0,129005.0,129176.0
1.0,16.0,129176.0,129207.0
4.0,19.0,129995.0,130054.0
4.0,6.0,130054.0,130190.0
4.0,18.0,130054.0,130190.0
6.0,18.0,130054.0,130190.0
1.0,16.0,130225.0,130401.0
0.0,7.0,130708.0,130756.0
0.0,7.0,130756.0,130812.0
0.0,11.0,130876.0,131010.0
0.0,22.0,130876.0,131010.0
11.0,22.0,130876.0,131010.0
3.0,10.0,131010.0,131065.0
3.0,10.0,131065.0,131084.0
3.0,10.0,131176.0,131222.0
4.0,19.0,131229.0,131262.0
1.0,16.0,131579.0,131769.0
0.0,7.0,132382.0,132504.0
0.0,11.0,132382.0,132504.0
0.0,22.0,132382.0,132504.0
7.0,11.0,132382.0,132504.0
7.0,22.0,132382.0,132504.0
11.0,22.0,132382.0,132504.0
0.0,7.0,132508.0,132596.0
0.0,11.0,132508.0,132596.0
0.0,22.0,132508.0,132596.0
7.0,11.0,132508.0,132596.0
7.0,22.0,132508.0,132596.0
11.0,22.0,132508.0,132596.0
0.0,7.0,132613.0,132636.0
0.0,22.0,132613.0,132636.0
7.0,22.0,132613.0,132636.0
0.0,22.0,132660.0,132672.0
3.0,10.0,133194.0,133274.0
3.0,14.0,133194.0,133274.0
10.0,14.0,133194.0,133274.0
3.0,10.0,133274.0,133453.0
3.0,14.0,133274.0,133453.0
10.0,14.0,133274.0,133453.0
4.0,6.0,133643.0,133788.0
6.0,21.0,133877.0,133910.0
6.0,21.0,133910.0,133961.0
1.0,16.0,134392.0,134538.0
0.0,11.0,134932.0,135073.0
0.0,22.0,134932.0,135073.0
11.0,22.0,134932.0,135073.0
0.0,7.0,135073.0,135114.0
0.0,7.0,135114.0,135347.0
0.0,7.0,135347.0,135416.0
4.0,19.0,136466.0,136499.0
4.0,19.0,136747.0,136857.0
3.0,10.0,137024.0,137209.0
0.0,11.0,137548.0,137704.0
0.0,22.0,137548.0,137704.0
11.0,22.0,137548.0,137704.0
0.0,11.0,137704.0,137808.0
3.0,9.0,138173.0,138235.0
3.0,10.0,138173.0,138235.0
9.0,10.0,138173.0,138235.0
0.0,7.0,138265.0,138443.0
0.0,7.0,138443.0,138551.0
0.0,22.0,138443.0,138551.0
7.0,22.0,138443.0,138551.0
0.0,22.0,138551.0,138557.0
3.0,9.0,138984.0,139005.0
3.0,10.0,139005.0,139009.0
1.0,16.0,139185.0,139250.0
1.0,16.0,139274.0,139307.0
1.0,16.0,139307.0,139316.0
1.0,16.0,139316.0,139389.0
1.0,16.0,139389.0,139418.0
1.0,8.0,139418.0,139481.0
1.0,16.0,139418.0,139481.0
8.0,16.0,139418.0,139481.0
1.0,8.0,139587.0,139626.0
1.0,8.0,139833.0,139897.0
6.0,21.0,139922.0,140066.0
0.0,22.0,140668.0,140701.0
0.0,22.0,140755.0,140758.0
0.0,7.0,140758.0,140834.0
0.0,7.0,140834.0,140851.0
3.0,10.0,141264.0,141534.0
6.0,21.0,141534.0,141570.0
6.0,21.0,141570.0,141660.0
6.0,21.0,141660.0,141695.0
6.0,21.0,141695.0,141877.0
6.0,21.0,141877.0,141923.0
1.0,8.0,142057.0,142264.0
0.0,7.0,142967.0,143011.0
0.0,7.0,143296.0,143387.0
0.0,11.0,143296.0,143387.0
0.0,22.0,143296.0,143387.0
7.0,11.0,143296.0,143387.0
7.0,22.0,143296.0,143387.0
11.0,22.0,143296.0,143387.0
3.0,9.0,143983.0,144027.0
3.0,9.0,144227.0,144444.0
7.0,22.0,144707.0,144719.0
7.0,22.0,144719.0,144804.0
11.0,22.0,144804.0,144867.0
7.0,11.0,144888.0,144938.0
0.0,22.0,144938.0,144980.0
0.0,22.0,144980.0,145022.0
1.0,8.0,145338.0,145471.0
1.0,8.0,145471.0,145556.0
1.0,8.0,145556.0,145582.0
1.0,8.0,145582.0,145652.0
1.0,8.0,145678.0,145806.0
1.0,8.0,146411.0,146583.0
1.0,8.0,146955.0,147068.0
1.0,8.0,147068.0,147076.0
1.0,8.0,147076.0,147254.0
4.0,10.0,147326.0,147560.0
6.0,21.0,147652.0,147704.0
6.0,21.0,147704.0,147717.0
6.0,21.0,147741.0,147764.0
6.0,21.0,147764.0,147817.0
6.0,21.0,147817.0,147881.0
6.0,21.0,147881.0,147940.0
4.0,19.0,148153.0,148299.0
4.0,19.0,148299.0,148421.0
3.0,9.0,148631.0,148672.0
3.0,9.0,148672.0,148728.0
3.0,9.0,148728.0,148843.0
3.0,9.0,148843.0,149073.0
0.0,7.0,149354.0,149427.0
3.0,9.0,149502.0,149635.0
3.0,9.0,150011.0,150082.0
11.0,22.0,150115.0,150208.0
1.0,8.0,150673.0,150688.0
1.0,8.0,150688.0,150830.0
1.0,8.0,151833.0,151904.0
1.0,8.0,151948.0,151968.0
2.0,8.0,151968.0,151994.0
2.0,8.0,151994.0,152022.0
1.0,8.0,152022.0,152037.0
1.0,2.0,152037.0,152167.0
1.0,8.0,152037.0,152167.0
2.0,8.0,152037.0,152167.0
4.0,19.0,152167.0,152316.0
1.0,2.0,152841.0,153131.0
1.0,8.0,152841.0,153131.0
2.0,8.0,152841.0,153131.0
3.0,9.0,153676.0,153846.0
1.0,2.0,153912.0,154227.0
11.0,22.0,156565.0,156615.0
11.0,22.0,156615.0,156640.0
0.0,7.0,156734.0,156769.0
0.0,7.0,156769.0,156799.0
0.0,7.0,156799.0,156808.0
11.0,22.0,156835.0,156924.0
6.0,21.0,157370.0,157413.0
1.0,2.0,158464.0,158492.0
1.0,2.0,158492.0,158580.0
1.0,2.0,158580.0,158733.0
1.0,2.0,158733.0,158782.0
1.0,2.0,158782.0,159056.0
1.0,8.0,158782.0,159056.0
2.0,8.0,158782.0,159056.0
1.0,2.0,159066.0,159134.0
1.0,8.0,159066.0,159134.0
2.0,8.0,159066.0,159134.0
1.0,2.0,159134.0,159265.0
1.0,8.0,159134.0,159265.0
2.0,8.0,159134.0,159265.0
1.0,2.0,159265.0,159358.0
1.0,8.0,159265.0,159358.0
2.0,8.0,159265.0,159358.0
1.0,2.0,159372.0,159417.0
1.0,8.0,159372.0,159417.0
2.0,8.0,159372.0,159417.0
1.0,2.0,159432.0,159447.0
1.0,8.0,159432.0,159447.0
2.0,8.0,159432.0,159447.0
0.0,7.0,159923.0,160146.0
0.0,7.0,160146.0,160175.0
14.0,22.0,160524.0,160615.0
3.0,9.0,160687.0,160777.0
3.0,9.0,160783.0,160817.0
6.0,21.0,161182.0,161245.0
1.0,8.0,161490.0,161541.0
1.0,8.0,161541.0,161743.0
1.0,16.0,161761.0,161848.0
0.0,11.0,162879.0,162903.0
0.0,11.0,162903.0,162948.0
0.0,11.0,163657.0,163696.0
0.0,11.0,163696.0,163725.0
0.0,11.0,163725.0,163801.0
0.0,11.0,163801.0,163864.0
0.0,11.0,163981.0,164049.0
3.0,9.0,164216.0,164365.0
3.0,9.0,164365.0,164420.0
3.0,9.0,164420.0,164530.0
3.0,14.0,164420.0,164530.0
9.0,14.0,164420.0,164530.0
3.0,9.0,164530.0,164620.0
3.0,14.0,164530.0,164620.0
9.0,14.0,164530.0,164620.0
4.0,6.0,164667.0,164719.0
4.0,6.0,164719.0,164888.0
1.0,16.0,165217.0,165252.0
1.0,16.0,165252.0,165290.0
1.0,16.0,165290.0,165328.0
1.0,16.0,165328.0,165359.0
1.0,16.0,165359.0,165430.0
0.0,11.0,166094.0,166196.0
0.0,11.0,166196.0,166232.0
0.0,11.0,166872.0,166954.0
0.0,11.0,167051.0,167082.0
0.0,11.0,167082.0,167091.0
1.0,16.0,167657.0,167796.0
1.0,16.0,167796.0,167855.0
1.0,16.0,168007.0,168028.0
3.0,9.0,168542.0,168562.0
3.0,14.0,168542.0,168562.0
9.0,14.0,168542.0,168562.0
3.0,14.0,168562.0,168602.0
3.0,9.0,168602.0,168718.0
3.0,14.0,168602.0,168718.0
9.0,14.0,168602.0,168718.0
0.0,11.0,169217.0,169479.0
0.0,11.0,169479.0,169493.0
0.0,11.0,169493.0,169529.0
0.0,11.0,169874.0,169943.0
0.0,11.0,169943.0,170035.0
0.0,11.0,170035.0,170110.0
0.0,11.0,170110.0,170225.0
1.0,16.0,171422.0,171495.0
4.0,6.0,171560.0,171580.0
4.0,6.0,171580.0,171659.0
4.0,6.0,171672.0,171788.0
4.0,6.0,171788.0,171803.0
0.0,11.0,172556.0,172578.0
0.0,11.0,172578.0,172730.0
3.0,14.0,173178.0,173210.0
0.0,3.0,173210.0,173260.0
0.0,14.0,173210.0,173260.0
3.0,14.0,173210.0,173260.0
0.0,3.0,173260.0,173440.0
11.0,14.0,173489.0,173539.0
1.0,16.0,173756.0,173804.0
1.0,16.0,173804.0,173974.0
2.0,8.0,174594.0,174668.0
4.0,6.0,175260.0,175416.0
0.0,3.0,175814.0,175863.0
0.0,14.0,175814.0,175863.0
3.0,14.0,175814.0,175863.0
0.0,3.0,175863.0,175880.0
0.0,14.0,175863.0,175880.0
3.0,14.0,175863.0,175880.0
0.0,3.0,175880.0,176038.0
0.0,14.0,175880.0,176038.0
3.0,14.0,175880.0,176038.0
2.0,8.0,176397.0,176436.0
3.0,10.0,176780.0,177034.0
3.0,14.0,176780.0,177034.0
10.0,14.0,176780.0,177034.0
2.0,8.0,178248.0,178408.0
2.0,8.0,178408.0,178440.0
1.0,16.0,178440.0,178509.0
1.0,16.0,178509.0,178783.0
0.0,3.0,179030.0,179181.0
0.0,11.0,179030.0,179181.0
0.0,14.0,179030.0,179181.0
3.0,11.0,179030.0,179181.0
3.0,14.0,179030.0,179181.0
11.0,14.0,179030.0,179181.0
3.0,14.0,179181.0,179254.0
0.0,3.0,179254.0,179289.0
0.0,14.0,179289.0,179322.0
0.0,3.0,179322.0,179343.0
0.0,14.0,179322.0,179343.0
3.0,14.0,179322.0,179343.0
2.0,12.0,180268.0,180275.0
2.0,13.0,180268.0,180275.0
2.0,17.0,180268.0,180275.0
12.0,13.0,180268.0,180275.0
12.0,17.0,180268.0,180275.0
13.0,17.0,180268.0,180275.0
6.0,13.0,180292.0,180302.0
6.0,20.0,180292.0,180302.0
13.0,20.0,180292.0,180302.0
6.0,19.0,182171.0,182195.0
6.0,19.0,182195.0,182265.0
6.0,19.0,182265.0,182308.0
6.0,19.0,182308.0,182417.0
4.0,6.0,182620.0,182739.0
0.0,3.0,184039.0,184169.0
0.0,11.0,184039.0,184169.0
3.0,11.0,184039.0,184169.0
0.0,3.0,184169.0,184204.0
0.0,11.0,184169.0,184204.0
3.0,11.0,184169.0,184204.0
0.0,3.0,184204.0,184222.0
0.0,11.0,184204.0,184222.0
3.0,11.0,184204.0,184222.0
6.0,21.0,184357.0,184449.0
6.0,21.0,184449.0,184469.0
6.0,21.0,184469.0,184481.0
6.0,21.0,184496.0,184558.0
6.0,21.0,184558.0,184644.0
6.0,21.0,184644.0,184664.0
0.0,3.0,184670.0,184985.0
0.0,11.0,184670.0,184985.0
3.0,11.0,184670.0,184985.0
0.0,3.0,185195.0,185344.0
0.0,11.0,185195.0,185344.0
3.0,11.0,185195.0,185344.0
0.0,3.0,185567.0,185642.0
0.0,11.0,185567.0,185642.0
3.0,11.0,185567.0,185642.0
0.0,3.0,185642.0,185665.0
0.0,11.0,185642.0,185665.0
3.0,11.0,185642.0,185665.0
1.0,16.0,187063.0,187100.0
1.0,16.0,187100.0,187166.0
6.0,14.0,187345.0,187368.0
6.0,14.0,187480.0,187689.0
6.0,14.0,188993.0,189044.0
1.0,2.0,189134.0,189146.0
1.0,2.0,190226.0,190355.0
1.0,2.0,190355.0,190439.0
1.0,2.0,190439.0,190483.0
0.0,3.0,190770.0,190959.0
0.0,11.0,190770.0,190959.0
3.0,11.0,190770.0,190959.0
0.0,3.0,190955.0,190960.0
0.0,11.0,190955.0,190960.0
3.0,11.0,190955.0,190960.0
0.0,3.0,190960.0,190984.0
0.0,11.0,190960.0,190984.0
3.0,11.0,190960.0,190984.0
0.0,11.0,190984.0,191043.0
0.0,3.0,191043.0,191133.0
0.0,11.0,191043.0,191133.0
3.0,11.0,191043.0,191133.0
0.0,3.0,191133.0,191308.0
1.0,2.0,191641.0,191885.0
1.0,9.0,191641.0,191885.0
2.0,9.0,191641.0,191885.0
0.0,11.0,191924.0,191961.0
0.0,11.0,192024.0,192070.0
0.0,11.0,192070.0,192086.0
0.0,11.0,192126.0,192140.0
0.0,11.0,192227.0,192274.0
0.0,11.0,192274.0,192335.0
0.0,11.0,192581.0,192720.0
0.0,11.0,192906.0,192946.0
3.0,10.0,192975.0,192983.0
0.0,3.0,192983.0,192997.0
0.0,3.0,192997.0,193040.0
0.0,10.0,192997.0,193040.0
3.0,10.0,192997.0,193040.0
0.0,3.0,193040.0,193065.0
0.0,3.0,193241.0,193272.0
0.0,11.0,193303.0,193310.0
0.0,3.0,193310.0,193326.0
0.0,3.0,193326.0,193341.0
4.0,19.0,193884.0,193949.0
6.0,21.0,195184.0,195214.0
6.0,21.0,195214.0,195242.0
0.0,11.0,195725.0,195943.0
0.0,3.0,195955.0,196096.0
1.0,2.0,196409.0,196617.0
3.0,10.0,196754.0,196918.0
0.0,3.0,197204.0,197450.0
0.0,10.0,197204.0,197450.0
0.0,11.0,197204.0,197450.0
3.0,10.0,197204.0,197450.0
3.0,11.0,197204.0,197450.0
10.0,11.0,197204.0,197450.0
0.0,3.0,197450.0,197483.0
0.0,10.0,197450.0,197483.0
0.0,11.0,197450.0,197483.0
3.0,10.0,197450.0,197483.0
3.0,11.0,197450.0,197483.0
10.0,11.0,197450.0,197483.0
6.0,21.0,197483.0,197508.0
4.0,6.0,197508.0,197636.0
1.0,2.0,197729.0,197749.0
1.0,16.0,197729.0,197749.0
2.0,16.0,197729.0,197749.0
0.0,3.0,198529.0,198746.0
0.0,10.0,198529.0,198746.0
0.0,11.0,198529.0,198746.0
0.0,14.0,198529.0,198746.0
3.0,10.0,198529.0,198746.0
3.0,11.0,198529.0,198746.0
3.0,14.0,198529.0,198746.0
10.0,11.0,198529.0,198746.0
10.0,14.0,198529.0,198746.0
11.0,14.0,198529.0,198746.0
0.0,3.0,198746.0,198829.0
0.0,10.0,198746.0,198829.0
0.0,11.0,198746.0,198829.0
0.0,14.0,198746.0,198829.0
3.0,10.0,198746.0,198829.0
3.0,11.0,198746.0,198829.0
3.0,14.0,198746.0,198829.0
10.0,11.0,198746.0,198829.0
10.0,14.0,198746.0,198829.0
11.0,14.0,198746.0,198829.0
0.0,3.0,198837.0,198926.0
0.0,3.0,198926.0,198938.0
0.0,3.0,198938.0,198999.0
4.0,6.0,199012.0,199248.0
4.0,6.0,199284.0,199337.0
4.0,6.0,199337.0,199574.0
3.0,10.0,200023.0,200047.0
3.0,10.0,200047.0,200052.0
3.0,14.0,200047.0,200052.0
10.0,14.0,200047.0,200052.0
3.0,10.0,200052.0,200067.0
3.0,10.0,200067.0,200116.0
3.0,14.0,200067.0,200116.0
10.0,14.0,200067.0,200116.0
7.0,8.0,201013.0,201079.0
1.0,2.0,201079.0,201129.0
1.0,16.0,201079.0,201129.0
2.0,16.0,201079.0,201129.0
1.0,2.0,201129.0,201265.0
1.0,16.0,201129.0,201265.0
2.0,16.0,201129.0,201265.0
1.0,2.0,201265.0,201314.0
1.0,2.0,201314.0,201353.0
1.0,16.0,201314.0,201353.0
2.0,16.0,201314.0,201353.0
1.0,2.0,201353.0,201413.0
1.0,2.0,201714.0,202003.0
1.0,16.0,201714.0,202003.0
2.0,16.0,201714.0,202003.0
1.0,2.0,202003.0,202198.0
1.0,16.0,202003.0,202198.0
2.0,16.0,202003.0,202198.0
0.0,3.0,202198.0,202215.0
0.0,3.0,202215.0,202283.0
0.0,11.0,202215.0,202283.0
3.0,11.0,202215.0,202283.0
4.0,6.0,202283.0,202288.0
4.0,6.0,202288.0,202379.0
7.0,8.0,202514.0,202619.0
7.0,8.0,202619.0,202647.0
1.0,2.0,202756.0,202957.0
1.0,9.0,202756.0,202957.0
1.0,16.0,202756.0,202957.0
2.0,9.0,202756.0,202957.0
2.0,16.0,202756.0,202957.0
9.0,16.0,202756.0,202957.0
7.0,8.0,203412.0,203614.0
0.0,3.0,203854.0,204091.0
0.0,10.0,203854.0,204091.0
0.0,11.0,203854.0,204091.0
0.0,14.0,203854.0,204091.0
3.0,10.0,203854.0,204091.0
3.0,11.0,203854.0,204091.0
3.0,14.0,203854.0,204091.0
10.0,11.0,203854.0,204091.0
10.0,14.0,203854.0,204091.0
11.0,14.0,203854.0,204091.0
0.0,10.0,204100.0,204208.0
0.0,11.0,204213.0,204224.0
0.0,3.0,204224.0,204238.0
0.0,11.0,204224.0,204238.0
3.0,11.0,204224.0,204238.0
3.0,10.0,204241.0,204253.0
0.0,1.0,205212.0,205306.0
0.0,11.0,205212.0,205306.0
1.0,11.0,205212.0,205306.0
0.0,1.0,205306.0,205351.0
0.0,11.0,205306.0,205351.0
1.0,11.0,205306.0,205351.0
0.0,1.0,205351.0,205413.0
0.0,11.0,205351.0,205413.0
1.0,11.0,205351.0,205413.0
0.0,1.0,205413.0,205449.0
0.0,11.0,205413.0,205449.0
1.0,11.0,205413.0,205449.0
0.0,1.0,205560.0,206121.0
0.0,2.0,205560.0,206121.0
0.0,11.0,205560.0,206121.0
1.0,2.0,205560.0,206121.0
1.0,11.0,205560.0,206121.0
2.0,11.0,205560.0,206121.0
0.0,1.0,206121.0,206171.0
0.0,2.0,206121.0,206171.0
0.0,11.0,206121.0,206171.0
0.0,16.0,206121.0,206171.0
1.0,2.0,206121.0,206171.0
1.0,11.0,206121.0,206171.0
1.0,16.0,206121.0,206171.0
2.0,11.0,206121.0,206171.0
2.0,16.0,206121.0,206171.0
11.0,16.0,206121.0,206171.0
1.0,2.0,206171.0,206191.0
1.0,16.0,206171.0,206191.0
2.0,16.0,206171.0,206191.0
4.0,6.0,206327.0,206483.0
4.0,6.0,206775.0,206815.0
4.0,6.0,206815.0,206849.0
4.0,6.0,206849.0,206867.0
0.0,1.0,207030.0,207261.0
1.0,2.0,207261.0,207375.0
0.0,2.0,207375.0,207412.0
0.0,2.0,207412.0,207489.0
3.0,10.0,207497.0,207559.0
3.0,10.0,207559.0,207575.0
3.0,10.0,207575.0,207654.0
3.0,13.0,207664.0,207698.0
3.0,13.0,207698.0,207818.0
7.0,8.0,207818.0,207889.0
7.0,8.0,207889.0,207967.0
1.0,2.0,208073.0,208133.0
1.0,16.0,208073.0,208133.0
2.0,16.0,208073.0,208133.0
1.0,2.0,208183.0,208218.0
1.0,16.0,208183.0,208218.0
2.0,16.0,208183.0,208218.0
6.0,21.0,208352.0,208371.0
6.0,21.0,209013.0,209095.0
6.0,21.0,209035.0,209152.0
10.0,13.0,209242.0,209347.0
10.0,13.0,209347.0,209369.0
3.0,5.0,209657.0,209825.0
3.0,5.0,209825.0,209980.0
3.0,13.0,209825.0,209980.0
5.0,13.0,209825.0,209980.0
3.0,5.0,209980.0,210003.0
3.0,13.0,209980.0,210003.0
3.0,14.0,209980.0,210003.0
5.0,13.0,209980.0,210003.0
5.0,14.0,209980.0,210003.0
13.0,14.0,209980.0,210003.0
3.0,5.0,210023.0,210030.0
3.0,10.0,210023.0,210030.0
3.0,13.0,210023.0,210030.0
5.0,10.0,210023.0,210030.0
5.0,13.0,210023.0,210030.0
10.0,13.0,210023.0,210030.0
0.0,2.0,210060.0,210071.0
0.0,2.0,210071.0,210080.0
0.0,2.0,210080.0,210142.0
0.0,11.0,210080.0,210142.0
2.0,11.0,210080.0,210142.0
0.0,2.0,210142.0,210326.0
0.0,1.0,210326.0,210402.0
0.0,2.0,210326.0,210402.0
0.0,11.0,210326.0,210402.0
0.0,16.0,210326.0,210402.0
1.0,2.0,210326.0,210402.0
1.0,11.0,210326.0,210402.0
1.0,16.0,210326.0,210402.0
2.0,11.0,210326.0,210402.0
2.0,16.0,210326.0,210402.0
11.0,16.0,210326.0,210402.0
0.0,1.0,210402.0,210406.0
0.0,2.0,210402.0,210406.0
0.0,11.0,210402.0,210406.0
0.0,16.0,210402.0,210406.0
1.0,2.0,210402.0,210406.0
1.0,11.0,210402.0,210406.0
1.0,16.0,210402.0,210406.0
2.0,11.0,210402.0,210406.0
2.0,16.0,210402.0,210406.0
11.0,16.0,210402.0,210406.0
0.0,1.0,210406.0,210443.0
0.0,2.0,210406.0,210443.0
0.0,11.0,210406.0,210443.0
0.0,16.0,210406.0,210443.0
1.0,2.0,210406.0,210443.0
1.0,11.0,210406.0,210443.0
1.0,16.0,210406.0,210443.0
2.0,11.0,210406.0,210443.0
2.0,16.0,210406.0,210443.0
11.0,16.0,210406.0,210443.0
0.0,1.0,210443.0,210448.0
0.0,2.0,210443.0,210448.0
0.0,11.0,210443.0,210448.0
0.0,16.0,210443.0,210448.0
1.0,2.0,210443.0,210448.0
1.0,11.0,210443.0,210448.0
1.0,16.0,210443.0,210448.0
2.0,11.0,210443.0,210448.0
2.0,16.0,210443.0,210448.0
11.0,16.0,210443.0,210448.0
0.0,1.0,210448.0,210485.0
0.0,2.0,210448.0,210485.0
0.0,11.0,210448.0,210485.0
0.0,16.0,210448.0,210485.0
1.0,2.0,210448.0,210485.0
1.0,11.0,210448.0,210485.0
1.0,16.0,210448.0,210485.0
2.0,11.0,210448.0,210485.0
2.0,16.0,210448.0,210485.0
11.0,16.0,210448.0,210485.0
0.0,1.0,210485.0,210488.0
0.0,2.0,210485.0,210488.0
0.0,11.0,210485.0,210488.0
0.0,16.0,210485.0,210488.0
1.0,2.0,210485.0,210488.0
1.0,11.0,210485.0,210488.0
1.0,16.0,210485.0,210488.0
2.0,11.0,210485.0,210488.0
2.0,16.0,210485.0,210488.0
11.0,16.0,210485.0,210488.0
5.0,14.0,210507.0,210538.0
3.0,10.0,210538.0,210546.0
3.0,5.0,210546.0,210696.0
3.0,10.0,210546.0,210696.0
3.0,14.0,210546.0,210696.0
5.0,10.0,210546.0,210696.0
5.0,14.0,210546.0,210696.0
10.0,14.0,210546.0,210696.0
0.0,11.0,210696.0,210731.0
0.0,11.0,210731.0,210834.0
0.0,9.0,210844.0,210932.0
0.0,11.0,210844.0,210932.0
9.0,11.0,210844.0,210932.0
6.0,21.0,210932.0,210947.0
6.0,21.0,210947.0,210980.0
6.0,21.0,210980.0,210987.0
6.0,21.0,210987.0,211078.0
6.0,21.0,211078.0,211119.0
6.0,21.0,211137.0,211174.0
2.0,6.0,211174.0,211195.0
2.0,21.0,211174.0,211195.0
6.0,21.0,211174.0,211195.0
2.0,6.0,211299.0,211339.0
2.0,21.0,211299.0,211339.0
6.0,21.0,211299.0,211339.0
6.0,21.0,211349.0,211364.0
1.0,2.0,211507.0,211518.0
2.0,6.0,211556.0,211583.0
1.0,2.0,211583.0,211597.0
1.0,21.0,211583.0,211597.0
2.0,21.0,211583.0,211597.0
1.0,2.0,211597.0,211618.0
1.0,21.0,211597.0,211618.0
2.0,21.0,211597.0,211618.0
2.0,21.0,211618.0,211639.0
1.0,2.0,211642.0,211650.0
1.0,21.0,211642.0,211650.0
2.0,21.0,211642.0,211650.0
2.0,21.0,211650.0,211675.0
2.0,6.0,211689.0,211702.0
1.0,6.0,211702.0,211710.0
1.0,2.0,211710.0,211723.0
1.0,6.0,211710.0,211723.0
2.0,6.0,211710.0,211723.0
2.0,6.0,211723.0,211730.0
2.0,6.0,211730.0,211733.0
2.0,21.0,211730.0,211733.0
6.0,21.0,211730.0,211733.0
6.0,21.0,211733.0,211736.0
6.0,21.0,211990.0,212096.0
1.0,2.0,212156.0,212436.0
1.0,2.0,212436.0,212468.0
4.0,6.0,212479.0,212628.0
0.0,2.0,212628.0,212746.0
0.0,2.0,212746.0,212773.0
0.0,2.0,212773.0,212826.0
0.0,2.0,212826.0,212893.0
0.0,8.0,212826.0,212893.0
2.0,8.0,212826.0,212893.0
1.0,16.0,213162.0,213264.0
0.0,1.0,213264.0,213480.0
0.0,2.0,213264.0,213480.0
0.0,8.0,213264.0,213480.0
0.0,11.0,213264.0,213480.0
0.0,16.0,213264.0,213480.0
1.0,2.0,213264.0,213480.0
1.0,8.0,213264.0,213480.0
1.0,11.0,213264.0,213480.0
1.0,16.0,213264.0,213480.0
2.0,8.0,213264.0,213480.0
2.0,11.0,213264.0,213480.0
2.0,16.0,213264.0,213480.0
8.0,11.0,213264.0,213480.0
8.0,16.0,213264.0,213480.0
11.0,16.0,213264.0,213480.0
3.0,5.0,213480.0,213530.0
3.0,5.0,213530.0,213658.0
1.0,11.0,213658.0,213698.0
6.0,21.0,213698.0,213725.0
1.0,6.0,213725.0,213738.0
1.0,21.0,213725.0,213738.0
6.0,21.0,213725.0,213738.0
1.0,6.0,213738.0,213841.0
1.0,11.0,214111.0,214174.0
4.0,6.0,214174.0,214190.0
4.0,6.0,214190.0,214349.0
0.0,11.0,214369.0,214473.0
1.0,8.0,214473.0,214511.0
1.0,2.0,214511.0,214534.0
1.0,8.0,214511.0,214534.0
2.0,8.0,214511.0,214534.0
0.0,1.0,214534.0,214596.0
0.0,2.0,214534.0,214596.0
0.0,8.0,214534.0,214596.0
0.0,11.0,214534.0,214596.0
1.0,2.0,214534.0,214596.0
1.0,8.0,214534.0,214596.0
1.0,11.0,214534.0,214596.0
2.0,8.0,214534.0,214596.0
2.0,11.0,214534.0,214596.0
8.0,11.0,214534.0,214596.0
5.0,10.0,214798.0,214834.0
5.0,10.0,214834.0,214854.0
5.0,10.0,214854.0,214902.0
5.0,10.0,214902.0,214925.0
5.0,10.0,215009.0,215028.0
0.0,8.0,215028.0,215047.0
0.0,11.0,215028.0,215047.0
8.0,11.0,215028.0,215047.0
0.0,8.0,215047.0,215102.0
0.0,11.0,215047.0,215102.0
8.0,11.0,215047.0,215102.0
0.0,8.0,215102.0,215243.0
0.0,11.0,215102.0,215243.0
0.0,15.0,215102.0,215243.0
8.0,11.0,215102.0,215243.0
8.0,15.0,215102.0,215243.0
11.0,15.0,215102.0,215243.0
0.0,8.0,215243.0,215288.0
0.0,15.0,215243.0,215288.0
8.0,15.0,215243.0,215288.0
0.0,8.0,215288.0,215305.0
0.0,15.0,215288.0,215305.0
8.0,15.0,215288.0,215305.0
0.0,8.0,215562.0,215667.0
0.0,15.0,215562.0,215667.0
8.0,15.0,215562.0,215667.0
0.0,8.0,215667.0,215743.0
0.0,15.0,215667.0,215743.0
8.0,15.0,215667.0,215743.0
0.0,8.0,215743.0,215805.0
0.0,15.0,215743.0,215805.0
8.0,15.0,215743.0,215805.0
0.0,8.0,215805.0,215887.0
3.0,5.0,215898.0,216222.0
0.0,8.0,216222.0,216237.0
0.0,15.0,216222.0,216237.0
8.0,15.0,216222.0,216237.0
8.0,15.0,216290.0,216307.0
0.0,8.0,216453.0,216480.0
0.0,15.0,216453.0,216480.0
8.0,15.0,216453.0,216480.0
1.0,2.0,216480.0,216785.0
0.0,8.0,216785.0,216941.0
0.0,15.0,216785.0,216941.0
8.0,15.0,216785.0,216941.0
0.0,8.0,216941.0,216953.0
0.0,15.0,216941.0,216953.0
8.0,15.0,216941.0,216953.0
0.0,8.0,216953.0,217048.0
0.0,15.0,216953.0,217048.0
8.0,15.0,216953.0,217048.0
3.0,10.0,217048.0,217165.0
0.0,8.0,217165.0,217172.0
0.0,15.0,217165.0,217172.0
8.0,15.0,217165.0,217172.0
0.0,8.0,217219.0,217232.0
0.0,15.0,217219.0,217232.0
8.0,15.0,217219.0,217232.0
0.0,8.0,217305.0,217329.0
0.0,15.0,217305.0,217329.0
8.0,15.0,217305.0,217329.0
0.0,8.0,217329.0,217426.0
0.0,15.0,217329.0,217426.0
8.0,15.0,217329.0,217426.0
0.0,8.0,217426.0,217530.0
0.0,15.0,217426.0,217530.0
8.0,15.0,217426.0,217530.0
0.0,8.0,217563.0,217590.0
0.0,15.0,217563.0,217590.0
8.0,15.0,217563.0,217590.0
0.0,8.0,217641.0,217767.0
0.0,15.0,217641.0,217767.0
8.0,15.0,217641.0,217767.0
0.0,8.0,217767.0,217825.0
0.0,15.0,217767.0,217825.0
8.0,15.0,217767.0,217825.0
0.0,8.0,217825.0,217876.0
0.0,15.0,217825.0,217876.0
8.0,15.0,217825.0,217876.0
3.0,14.0,217903.0,218008.0
1.0,2.0,218008.0,218074.0
0.0,8.0,218074.0,218217.0
0.0,15.0,218074.0,218217.0
8.0,15.0,218074.0,218217.0
0.0,8.0,218217.0,218433.0
0.0,15.0,218217.0,218433.0
8.0,15.0,218217.0,218433.0
0.0,2.0,218433.0,218501.0
0.0,8.0,218433.0,218501.0
0.0,15.0,218433.0,218501.0
2.0,8.0,218433.0,218501.0
2.0,15.0,218433.0,218501.0
8.0,15.0,218433.0,218501.0
0.0,2.0,218509.0,218549.0
0.0,8.0,218509.0,218549.0
0.0,15.0,218509.0,218549.0
2.0,8.0,218509.0,218549.0
2.0,15.0,218509.0,218549.0
8.0,15.0,218509.0,218549.0
0.0,2.0,218549.0,218592.0
0.0,8.0,218549.0,218592.0
0.0,15.0,218549.0,218592.0
2.0,8.0,218549.0,218592.0
2.0,15.0,218549.0,218592.0
8.0,15.0,218549.0,218592.0
0.0,2.0,218592.0,218644.0
0.0,8.0,218592.0,218644.0
0.0,15.0,218592.0,218644.0
2.0,8.0,218592.0,218644.0
2.0,15.0,218592.0,218644.0
8.0,15.0,218592.0,218644.0
2.0,8.0,218644.0,218662.0
2.0,15.0,218644.0,218662.0
8.0,15.0,218644.0,218662.0
2.0,8.0,218662.0,218692.0
2.0,15.0,218662.0,218692.0
8.0,15.0,218662.0,218692.0
2.0,8.0,218912.0,218927.0
2.0,8.0,218927.0,218941.0
2.0,8.0,218949.0,218971.0
2.0,8.0,218976.0,218979.0
0.0,2.0,218983.0,219015.0
0.0,11.0,218983.0,219015.0
2.0,11.0,218983.0,219015.0
3.0,5.0,219063.0,219251.0
0.0,2.0,219257.0,219467.0
6.0,21.0,219817.0,219869.0
6.0,21.0,219879.0,219881.0
6.0,21.0,219889.0,219891.0
6.0,21.0,219902.0,219913.0
1.0,9.0,219923.0,219931.0
1.0,16.0,219923.0,219931.0
9.0,16.0,219923.0,219931.0
0.0,1.0,219931.0,219955.0
0.0,8.0,219931.0,219955.0
0.0,11.0,219931.0,219955.0
1.0,8.0,219931.0,219955.0
1.0,11.0,219931.0,219955.0
8.0,11.0,219931.0,219955.0
4.0,6.0,219994.0,220030.0
0.0,1.0,220030.0,220064.0
0.0,8.0,220030.0,220064.0
0.0,9.0,220030.0,220064.0
0.0,11.0,220030.0,220064.0
0.0,15.0,220030.0,220064.0
0.0,16.0,220030.0,220064.0
1.0,8.0,220030.0,220064.0
1.0,9.0,220030.0,220064.0
1.0,11.0,220030.0,220064.0
1.0,15.0,220030.0,220064.0
1.0,16.0,220030.0,220064.0
8.0,9.0,220030.0,220064.0
8.0,11.0,220030.0,220064.0
8.0,15.0,220030.0,220064.0
8.0,16.0,220030.0,220064.0
9.0,11.0,220030.0,220064.0
9.0,15.0,220030.0,220064.0
9.0,16.0,220030.0,220064.0
11.0,15.0,220030.0,220064.0
11.0,16.0,220030.0,220064.0
15.0,16.0,220030.0,220064.0
0.0,1.0,220064.0,220111.0
0.0,8.0,220064.0,220111.0
0.0,9.0,220064.0,220111.0
0.0,11.0,220064.0,220111.0
0.0,14.0,220064.0,220111.0
0.0,15.0,220064.0,220111.0
0.0,16.0,220064.0,220111.0
0.0,21.0,220064.0,220111.0
1.0,8.0,220064.0,220111.0
1.0,9.0,220064.0,220111.0
1.0,11.0,220064.0,220111.0
1.0,14.0,220064.0,220111.0
1.0,15.0,220064.0,220111.0
1.0,16.0,220064.0,220111.0
1.0,21.0,220064.0,220111.0
8.0,9.0,220064.0,220111.0
8.0,11.0,220064.0,220111.0
8.0,14.0,220064.0,220111.0
8.0,15.0,220064.0,220111.0
8.0,16.0,220064.0,220111.0
8.0,21.0,220064.0,220111.0
9.0,11.0,220064.0,220111.0
9.0,14.0,220064.0,220111.0
9.0,15.0,220064.0,220111.0
9.0,16.0,220064.0,220111.0
9.0,21.0,220064.0,220111.0
11.0,14.0,220064.0,220111.0
11.0,15.0,220064.0,220111.0
11.0,16.0,220064.0,220111.0
11.0,21.0,220064.0,220111.0
14.0,15.0,220064.0,220111.0
14.0,16.0,220064.0,220111.0
14.0,21.0,220064.0,220111.0
15.0,16.0,220064.0,220111.0
15.0,21.0,220064.0,220111.0
16.0,21.0,220064.0,220111.0
1.0,21.0,220111.0,220130.0
14.0,15.0,220133.0,220186.0
0.0,1.0,220186.0,220267.0
0.0,8.0,220186.0,220267.0
0.0,9.0,220186.0,220267.0
0.0,11.0,220186.0,220267.0
0.0,14.0,220186.0,220267.0
0.0,15.0,220186.0,220267.0
0.0,16.0,220186.0,220267.0
0.0,21.0,220186.0,220267.0
1.0,8.0,220186.0,220267.0
1.0,9.0,220186.0,220267.0
1.0,11.0,220186.0,220267.0
1.0,14.0,220186.0,220267.0
1.0,15.0,220186.0,220267.0
1.0,16.0,220186.0,220267.0
1.0,21.0,220186.0,220267.0
8.0,9.0,220186.0,220267.0
8.0,11.0,220186.0,220267.0
8.0,14.0,220186.0,220267.0
8.0,15.0,220186.0,220267.0
8.0,16.0,220186.0,220267.0
8.0,21.0,220186.0,220267.0
9.0,11.0,220186.0,220267.0
9.0,14.0,220186.0,220267.0
9.0,15.0,220186.0,220267.0
9.0,16.0,220186.0,220267.0
9.0,21.0,220186.0,220267.0
11.0,14.0,220186.0,220267.0
11.0,15.0,220186.0,220267.0
11.0,16.0,220186.0,220267.0
11.0,21.0,220186.0,220267.0
14.0,15.0,220186.0,220267.0
14.0,16.0,220186.0,220267.0
14.0,21.0,220186.0,220267.0
15.0,16.0,220186.0,220267.0
15.0,21.0,220186.0,220267.0
16.0,21.0,220186.0,220267.0
0.0,1.0,220278.0,220347.0
0.0,8.0,220278.0,220347.0
0.0,9.0,220278.0,220347.0
0.0,11.0,220278.0,220347.0
0.0,14.0,220278.0,220347.0
0.0,15.0,220278.0,220347.0
0.0,16.0,220278.0,220347.0
0.0,21.0,220278.0,220347.0
1.0,8.0,220278.0,220347.0
1.0,9.0,220278.0,220347.0
1.0,11.0,220278.0,220347.0
1.0,14.0,220278.0,220347.0
1.0,15.0,220278.0,220347.0
1.0,16.0,220278.0,220347.0
1.0,21.0,220278.0,220347.0
8.0,9.0,220278.0,220347.0
8.0,11.0,220278.0,220347.0
8.0,14.0,220278.0,220347.0
8.0,15.0,220278.0,220347.0
8.0,16.0,220278.0,220347.0
8.0,21.0,220278.0,220347.0
9.0,11.0,220278.0,220347.0
9.0,14.0,220278.0,220347.0
9.0,15.0,220278.0,220347.0
9.0,16.0,220278.0,220347.0
9.0,21.0,220278.0,220347.0
11.0,14.0,220278.0,220347.0
11.0,15.0,220278.0,220347.0
11.0,16.0,220278.0,220347.0
11.0,21.0,220278.0,220347.0
14.0,15.0,220278.0,220347.0
14.0,16.0,220278.0,220347.0
14.0,21.0,220278.0,220347.0
15.0,16.0,220278.0,220347.0
15.0,21.0,220278.0,220347.0
16.0,21.0,220278.0,220347.0
0.0,1.0,220347.0,220385.0
0.0,8.0,220347.0,220385.0
0.0,9.0,220347.0,220385.0
0.0,11.0,220347.0,220385.0
0.0,14.0,220347.0,220385.0
0.0,15.0,220347.0,220385.0
0.0,16.0,220347.0,220385.0
1.0,8.0,220347.0,220385.0
1.0,9.0,220347.0,220385.0
1.0,11.0,220347.0,220385.0
1.0,14.0,220347.0,220385.0
1.0,15.0,220347.0,220385.0
1.0,16.0,220347.0,220385.0
8.0,9.0,220347.0,220385.0
8.0,11.0,220347.0,220385.0
8.0,14.0,220347.0,220385.0
8.0,15.0,220347.0,220385.0
8.0,16.0,220347.0,220385.0
9.0,11.0,220347.0,220385.0
9.0,14.0,220347.0,220385.0
9.0,15.0,220347.0,220385.0
9.0,16.0,220347.0,220385.0
11.0,14.0,220347.0,220385.0
11.0,15.0,220347.0,220385.0
11.0,16.0,220347.0,220385.0
14.0,15.0,220347.0,220385.0
14.0,16.0,220347.0,220385.0
15.0,16.0,220347.0,220385.0
0.0,1.0,220385.0,220478.0
0.0,4.0,220385.0,220478.0
0.0,6.0,220385.0,220478.0
0.0,8.0,220385.0,220478.0
0.0,9.0,220385.0,220478.0
0.0,11.0,220385.0,220478.0
0.0,14.0,220385.0,220478.0
0.0,15.0,220385.0,220478.0
0.0,16.0,220385.0,220478.0
1.0,4.0,220385.0,220478.0
1.0,6.0,220385.0,220478.0
1.0,8.0,220385.0,220478.0
1.0,9.0,220385.0,220478.0
1.0,11.0,220385.0,220478.0
1.0,14.0,220385.0,220478.0
1.0,15.0,220385.0,220478.0
1.0,16.0,220385.0,220478.0
4.0,6.0,220385.0,220478.0
4.0,8.0,220385.0,220478.0
4.0,9.0,220385.0,220478.0
4.0,11.0,220385.0,220478.0
4.0,14.0,220385.0,220478.0
4.0,15.0,220385.0,220478.0
4.0,16.0,220385.0,220478.0
6.0,8.0,220385.0,220478.0
6.0,9.0,220385.0,220478.0
6.0,11.0,220385.0,220478.0
6.0,14.0,220385.0,220478.0
6.0,15.0,220385.0,220478.0
6.0,16.0,220385.0,220478.0
8.0,9.0,220385.0,220478.0
8.0,11.0,220385.0,220478.0
8.0,14.0,220385.0,220478.0
8.0,15.0,220385.0,220478.0
8.0,16.0,220385.0,220478.0
9.0,11.0,220385.0,220478.0
9.0,14.0,220385.0,220478.0
9.0,15.0,220385.0,220478.0
9.0,16.0,220385.0,220478.0
11.0,14.0,220385.0,220478.0
11.0,15.0,220385.0,220478.0
11.0,16.0,220385.0,220478.0
14.0,15.0,220385.0,220478.0
14.0,16.0,220385.0,220478.0
15.0,16.0,220385.0,220478.0
0.0,1.0,220478.0,220508.0
0.0,4.0,220478.0,220508.0
0.0,6.0,220478.0,220508.0
0.0,8.0,220478.0,220508.0
0.0,9.0,220478.0,220508.0
0.0,11.0,220478.0,220508.0
0.0,14.0,220478.0,220508.0
0.0,16.0,220478.0,220508.0
1.0,4.0,220478.0,220508.0
1.0,6.0,220478.0,220508.0
1.0,8.0,220478.0,220508.0
1.0,9.0,220478.0,220508.0
1.0,11.0,220478.0,220508.0
1.0,14.0,220478.0,220508.0
1.0,16.0,220478.0,220508.0
4.0,6.0,220478.0,220508.0
4.0,8.0,220478.0,220508.0
4.0,9.0,220478.0,220508.0
4.0,11.0,220478.0,220508.0
4.0,14.0,220478.0,220508.0
4.0,16.0,220478.0,220508.0
6.0,8.0,220478.0,220508.0
6.0,9.0,220478.0,220508.0
6.0,11.0,220478.0,220508.0
6.0,14.0,220478.0,220508.0
6.0,16.0,220478.0,220508.0
8.0,9.0,220478.0,220508.0
8.0,11.0,220478.0,220508.0
8.0,14.0,220478.0,220508.0
8.0,16.0,220478.0,220508.0
9.0,11.0,220478.0,220508.0
9.0,14.0,220478.0,220508.0
9.0,16.0,220478.0,220508.0
11.0,14.0,220478.0,220508.0
11.0,16.0,220478.0,220508.0
14.0,16.0,220478.0,220508.0
0.0,1.0,220508.0,220580.0
0.0,2.0,220508.0,220580.0
0.0,4.0,220508.0,220580.0
0.0,6.0,220508.0,220580.0
0.0,8.0,220508.0,220580.0
0.0,9.0,220508.0,220580.0
0.0,11.0,220508.0,220580.0
0.0,14.0,220508.0,220580.0
0.0,16.0,220508.0,220580.0
1.0,2.0,220508.0,220580.0
1.0,4.0,220508.0,220580.0
1.0,6.0,220508.0,220580.0
1.0,8.0,220508.0,220580.0
1.0,9.0,220508.0,220580.0
1.0,11.0,220508.0,220580.0
1.0,14.0,220508.0,220580.0
1.0,16.0,220508.0,220580.0
2.0,4.0,220508.0,220580.0
2.0,6.0,220508.0,220580.0
2.0,8.0,220508.0,220580.0
2.0,9.0,220508.0,220580.0
2.0,11.0,220508.0,220580.0
2.0,14.0,220508.0,220580.0
2.0,16.0,220508.0,220580.0
4.0,6.0,220508.0,220580.0
4.0,8.0,220508.0,220580.0
4.0,9.0,220508.0,220580.0
4.0,11.0,220508.0,220580.0
4.0,14.0,220508.0,220580.0
4.0,16.0,220508.0,220580.0
6.0,8.0,220508.0,220580.0
6.0,9.0,220508.0,220580.0
6.0,11.0,220508.0,220580.0
6.0,14.0,220508.0,220580.0
6.0,16.0,220508.0,220580.0
8.0,9.0,220508.0,220580.0
8.0,11.0,220508.0,220580.0
8.0,14.0,220508.0,220580.0
8.0,16.0,220508.0,220580.0
9.0,11.0,220508.0,220580.0
9.0,14.0,220508.0,220580.0
9.0,16.0,220508.0,220580.0
11.0,14.0,220508.0,220580.0
11.0,16.0,220508.0,220580.0
14.0,16.0,220508.0,220580.0
0.0,1.0,220580.0,220796.0
0.0,2.0,220580.0,220796.0
0.0,4.0,220580.0,220796.0
0.0,6.0,220580.0,220796.0
0.0,8.0,220580.0,220796.0
0.0,9.0,220580.0,220796.0
0.0,11.0,220580.0,220796.0
0.0,14.0,220580.0,220796.0
0.0,16.0,220580.0,220796.0
1.0,2.0,220580.0,220796.0
1.0,4.0,220580.0,220796.0
1.0,6.0,220580.0,220796.0
1.0,8.0,220580.0,220796.0
1.0,9.0,220580.0,220796.0
1.0,11.0,220580.0,220796.0
1.0,14.0,220580.0,220796.0
1.0,16.0,220580.0,220796.0
2.0,4.0,220580.0,220796.0
2.0,6.0,220580.0,220796.0
2.0,8.0,220580.0,220796.0
2.0,9.0,220580.0,220796.0
2.0,11.0,220580.0,220796.0
2.0,14.0,220580.0,220796.0
2.0,16.0,220580.0,220796.0
4.0,6.0,220580.0,220796.0
4.0,8.0,220580.0,220796.0
4.0,9.0,220580.0,220796.0
4.0,11.0,220580.0,220796.0
4.0,14.0,220580.0,220796.0
4.0,16.0,220580.0,220796.0
6.0,8.0,220580.0,220796.0
6.0,9.0,220580.0,220796.0
6.0,11.0,220580.0,220796.0
6.0,14.0,220580.0,220796.0
6.0,16.0,220580.0,220796.0
8.0,9.0,220580.0,220796.0
8.0,11.0,220580.0,220796.0
8.0,14.0,220580.0,220796.0
8.0,16.0,220580.0,220796.0
9.0,11.0,220580.0,220796.0
9.0,14.0,220580.0,220796.0
9.0,16.0,220580.0,220796.0
11.0,14.0,220580.0,220796.0
11.0,16.0,220580.0,220796.0
14.0,16.0,220580.0,220796.0
0.0,1.0,220796.0,221064.0
0.0,2.0,220796.0,221064.0
0.0,4.0,220796.0,221064.0
0.0,6.0,220796.0,221064.0
0.0,8.0,220796.0,221064.0
0.0,9.0,220796.0,221064.0
0.0,11.0,220796.0,221064.0
0.0,14.0,220796.0,221064.0
0.0,15.0,220796.0,221064.0
0.0,16.0,220796.0,221064.0
1.0,2.0,220796.0,221064.0
1.0,4.0,220796.0,221064.0
1.0,6.0,220796.0,221064.0
1.0,8.0,220796.0,221064.0
1.0,9.0,220796.0,221064.0
1.0,11.0,220796.0,221064.0
1.0,14.0,220796.0,221064.0
1.0,15.0,220796.0,221064.0
1.0,16.0,220796.0,221064.0
2.0,4.0,220796.0,221064.0
2.0,6.0,220796.0,221064.0
2.0,8.0,220796.0,221064.0
2.0,9.0,220796.0,221064.0
2.0,11.0,220796.0,221064.0
2.0,14.0,220796.0,221064.0
2.0,15.0,220796.0,221064.0
2.0,16.0,220796.0,221064.0
4.0,6.0,220796.0,221064.0
4.0,8.0,220796.0,221064.0
4.0,9.0,220796.0,221064.0
4.0,11.0,220796.0,221064.0
4.0,14.0,220796.0,221064.0
4.0,15.0,220796.0,221064.0
4.0,16.0,220796.0,221064.0
6.0,8.0,220796.0,221064.0
6.0,9.0,220796.0,221064.0
6.0,11.0,220796.0,221064.0
6.0,14.0,220796.0,221064.0
6.0,15.0,220796.0,221064.0
6.0,16.0,220796.0,221064.0
8.0,9.0,220796.0,221064.0
8.0,11.0,220796.0,221064.0
8.0,14.0,220796.0,221064.0
8.0,15.0,220796.0,221064.0
8.0,16.0,220796.0,221064.0
9.0,11.0,220796.0,221064.0
9.0,14.0,220796.0,221064.0
9.0,15.0,220796.0,221064.0
9.0,16.0,220796.0,221064.0
11.0,14.0,220796.0,221064.0
11.0,15.0,220796.0,221064.0
11.0,16.0,220796.0,221064.0
14.0,15.0,220796.0,221064.0
14.0,16.0,220796.0,221064.0
15.0,16.0,220796.0,221064.0
0.0,1.0,221064.0,221221.0
0.0,2.0,221064.0,221221.0
0.0,4.0,221064.0,221221.0
0.0,6.0,221064.0,221221.0
0.0,8.0,221064.0,221221.0
0.0,9.0,221064.0,221221.0
0.0,11.0,221064.0,221221.0
0.0,14.0,221064.0,221221.0
0.0,15.0,221064.0,221221.0
0.0,16.0,221064.0,221221.0
1.0,2.0,221064.0,221221.0
1.0,4.0,221064.0,221221.0
1.0,6.0,221064.0,221221.0
1.0,8.0,221064.0,221221.0
1.0,9.0,221064.0,221221.0
1.0,11.0,221064.0,221221.0
1.0,14.0,221064.0,221221.0
1.0,15.0,221064.0,221221.0
1.0,16.0,221064.0,221221.0
2.0,4.0,221064.0,221221.0
2.0,6.0,221064.0,221221.0
2.0,8.0,221064.0,221221.0
2.0,9.0,221064.0,221221.0
2.0,11.0,221064.0,221221.0
2.0,14.0,221064.0,221221.0
2.0,15.0,221064.0,221221.0
2.0,16.0,221064.0,221221.0
4.0,6.0,221064.0,221221.0
4.0,8.0,221064.0,221221.0
4.0,9.0,221064.0,221221.0
4.0,11.0,221064.0,221221.0
4.0,14.0,221064.0,221221.0
4.0,15.0,221064.0,221221.0
4.0,16.0,221064.0,221221.0
6.0,8.0,221064.0,221221.0
6.0,9.0,221064.0,221221.0
6.0,11.0,221064.0,221221.0
6.0,14.0,221064.0,221221.0
6.0,15.0,221064.0,221221.0
6.0,16.0,221064.0,221221.0
8.0,9.0,221064.0,221221.0
8.0,11.0,221064.0,221221.0
8.0,14.0,221064.0,221221.0
8.0,15.0,221064.0,221221.0
8.0,16.0,221064.0,221221.0
9.0,11.0,221064.0,221221.0
9.0,14.0,221064.0,221221.0
9.0,15.0,221064.0,221221.0
9.0,16.0,221064.0,221221.0
11.0,14.0,221064.0,221221.0
11.0,15.0,221064.0,221221.0
11.0,16.0,221064.0,221221.0
14.0,15.0,221064.0,221221.0
14.0,16.0,221064.0,221221.0
15.0,16.0,221064.0,221221.0
0.0,1.0,221221.0,221349.0
0.0,2.0,221221.0,221349.0
0.0,8.0,221221.0,221349.0
0.0,9.0,221221.0,221349.0
0.0,11.0,221221.0,221349.0
0.0,14.0,221221.0,221349.0
0.0,15.0,221221.0,221349.0
0.0,16.0,221221.0,221349.0
1.0,2.0,221221.0,221349.0
1.0,8.0,221221.0,221349.0
1.0,9.0,221221.0,221349.0
1.0,11.0,221221.0,221349.0
1.0,14.0,221221.0,221349.0
1.0,15.0,221221.0,221349.0
1.0,16.0,221221.0,221349.0
2.0,8.0,221221.0,221349.0
2.0,9.0,221221.0,221349.0
2.0,11.0,221221.0,221349.0
2.0,14.0,221221.0,221349.0
2.0,15.0,221221.0,221349.0
2.0,16.0,221221.0,221349.0
8.0,9.0,221221.0,221349.0
8.0,11.0,221221.0,221349.0
8.0,14.0,221221.0,221349.0
8.0,15.0,221221.0,221349.0
8.0,16.0,221221.0,221349.0
9.0,11.0,221221.0,221349.0
9.0,14.0,221221.0,221349.0
9.0,15.0,221221.0,221349.0
9.0,16.0,221221.0,221349.0
11.0,14.0,221221.0,221349.0
11.0,15.0,221221.0,221349.0
11.0,16.0,221221.0,221349.0
14.0,15.0,221221.0,221349.0
14.0,16.0,221221.0,221349.0
15.0,16.0,221221.0,221349.0
1.0,6.0,221369.0,221445.0
1.0,4.0,221445.0,221767.0
0.0,2.0,221767.0,221929.0
0.0,1.0,221929.0,221948.0
0.0,2.0,221929.0,221948.0
0.0,8.0,221929.0,221948.0
0.0,9.0,221929.0,221948.0
0.0,11.0,221929.0,221948.0
0.0,14.0,221929.0,221948.0
0.0,15.0,221929.0,221948.0
0.0,16.0,221929.0,221948.0
1.0,2.0,221929.0,221948.0
1.0,8.0,221929.0,221948.0
1.0,9.0,221929.0,221948.0
1.0,11.0,221929.0,221948.0
1.0,14.0,221929.0,221948.0
1.0,15.0,221929.0,221948.0
1.0,16.0,221929.0,221948.0
2.0,8.0,221929.0,221948.0
2.0,9.0,221929.0,221948.0
2.0,11.0,221929.0,221948.0
2.0,14.0,221929.0,221948.0
2.0,15.0,221929.0,221948.0
2.0,16.0,221929.0,221948.0
8.0,9.0,221929.0,221948.0
8.0,11.0,221929.0,221948.0
8.0,14.0,221929.0,221948.0
8.0,15.0,221929.0,221948.0
8.0,16.0,221929.0,221948.0
9.0,11.0,221929.0,221948.0
9.0,14.0,221929.0,221948.0
9.0,15.0,221929.0,221948.0
9.0,16.0,221929.0,221948.0
11.0,14.0,221929.0,221948.0
11.0,15.0,221929.0,221948.0
11.0,16.0,221929.0,221948.0
14.0,15.0,221929.0,221948.0
14.0,16.0,221929.0,221948.0
15.0,16.0,221929.0,221948.0
0.0,1.0,221948.0,222015.0
0.0,2.0,221948.0,222015.0
0.0,4.0,221948.0,222015.0
0.0,6.0,221948.0,222015.0
0.0,8.0,221948.0,222015.0
0.0,9.0,221948.0,222015.0
0.0,11.0,221948.0,222015.0
0.0,14.0,221948.0,222015.0
0.0,15.0,221948.0,222015.0
0.0,16.0,221948.0,222015.0
1.0,2.0,221948.0,222015.0
1.0,4.0,221948.0,222015.0
1.0,6.0,221948.0,222015.0
1.0,8.0,221948.0,222015.0
1.0,9.0,221948.0,222015.0
1.0,11.0,221948.0,222015.0
1.0,14.0,221948.0,222015.0
1.0,15.0,221948.0,222015.0
1.0,16.0,221948.0,222015.0
2.0,4.0,221948.0,222015.0
2.0,6.0,221948.0,222015.0
2.0,8.0,221948.0,222015.0
2.0,9.0,221948.0,222015.0
2.0,11.0,221948.0,222015.0
2.0,14.0,221948.0,222015.0
2.0,15.0,221948.0,222015.0
2.0,16.0,221948.0,222015.0
4.0,6.0,221948.0,222015.0
4.0,8.0,221948.0,222015.0
4.0,9.0,221948.0,222015.0
4.0,11.0,221948.0,222015.0
4.0,14.0,221948.0,222015.0
4.0,15.0,221948.0,222015.0
4.0,16.0,221948.0,222015.0
6.0,8.0,221948.0,222015.0
6.0,9.0,221948.0,222015.0
6.0,11.0,221948.0,222015.0
6.0,14.0,221948.0,222015.0
6.0,15.0,221948.0,222015.0
6.0,16.0,221948.0,222015.0
8.0,9.0,221948.0,222015.0
8.0,11.0,221948.0,222015.0
8.0,14.0,221948.0,222015.0
8.0,15.0,221948.0,222015.0
8.0,16.0,221948.0,222015.0
9.0,11.0,221948.0,222015.0
9.0,14.0,221948.0,222015.0
9.0,15.0,221948.0,222015.0
9.0,16.0,221948.0,222015.0
11.0,14.0,221948.0,222015.0
11.0,15.0,221948.0,222015.0
11.0,16.0,221948.0,222015.0
14.0,15.0,221948.0,222015.0
14.0,16.0,221948.0,222015.0
15.0,16.0,221948.0,222015.0
3.0,10.0,222023.0,222232.0
0.0,1.0,222237.0,222316.0
0.0,2.0,222237.0,222316.0
0.0,8.0,222237.0,222316.0
0.0,9.0,222237.0,222316.0
0.0,11.0,222237.0,222316.0
0.0,16.0,222237.0,222316.0
1.0,2.0,222237.0,222316.0
1.0,8.0,222237.0,222316.0
1.0,9.0,222237.0,222316.0
1.0,11.0,222237.0,222316.0
1.0,16.0,222237.0,222316.0
2.0,8.0,222237.0,222316.0
2.0,9.0,222237.0,222316.0
2.0,11.0,222237.0,222316.0
2.0,16.0,222237.0,222316.0
8.0,9.0,222237.0,222316.0
8.0,11.0,222237.0,222316.0
8.0,16.0,222237.0,222316.0
9.0,11.0,222237.0,222316.0
9.0,16.0,222237.0,222316.0
11.0,16.0,222237.0,222316.0
0.0,9.0,222316.0,222340.0
0.0,11.0,222316.0,222340.0
9.0,11.0,222316.0,222340.0
0.0,9.0,222340.0,222546.0
3.0,5.0,222834.0,223174.0
3.0,10.0,222834.0,223174.0
3.0,13.0,222834.0,223174.0
5.0,10.0,222834.0,223174.0
5.0,13.0,222834.0,223174.0
10.0,13.0,222834.0,223174.0
4.0,6.0,223174.0,223203.0
4.0,6.0,223203.0,223222.0
4.0,6.0,223222.0,223400.0
4.0,6.0,223400.0,223493.0
7.0,13.0,223583.0,223724.0
0.0,2.0,223768.0,223788.0
0.0,2.0,223818.0,223856.0
3.0,5.0,223875.0,223990.0
